%!PS-Adobe-3.0 EPSF-3.0
%%Title: plots/rlof_types_hist.eps
%%Creator: matplotlib version 3.1.1, http://matplotlib.org/
%%CreationDate: Sat Sep 28 12:37:14 2019
%%Orientation: portrait
%%BoundingBox: -39.52343749999995 182.92031250000002 651.5234374999999 609.0796875
%%EndComments
%%BeginProlog
/mpldict 8 dict def
mpldict begin
/m { moveto } bind def
/l { lineto } bind def
/r { rlineto } bind def
/c { curveto } bind def
/cl { closepath } bind def
/box {
m
1 index 0 r
0 exch r
neg 0 r
cl
} bind def
/clipbox {
box
clip
newpath
} bind def
%!PS-Adobe-3.0 Resource-Font
%%Title: DejaVu Sans
%%Copyright: Copyright (c) 2003 by Bitstream, Inc. All Rights Reserved. Copyright (c) 2006 by Tavmjong Bah. All Rights Reserved. DejaVu changes are in public domain 
%%Creator: Converted from TrueType to type 3 by PPR
25 dict begin
/_d{bind def}bind def
/_m{moveto}_d
/_l{lineto}_d
/_cl{closepath eofill}_d
/_c{curveto}_d
/_sc{7 -1 roll{setcachedevice}{pop pop pop pop pop pop}ifelse}_d
/_e{exec}_d
/FontName /DejaVuSans def
/PaintType 0 def
/FontMatrix[.001 0 0 .001 0 0]def
/FontBBox[-1021 -463 1793 1232]def
/FontType 3 def
/Encoding [ /space /period /zero /one /two /four /six /eight /equal /A /B /C /F /L /O /R /Z /a /c /d /e /f /i /k /l /m /n /o /p /r /s /t /y ] def
/FontInfo 10 dict dup begin
/FamilyName (DejaVu Sans) def
/FullName (DejaVu Sans) def
/Notice (Copyright (c) 2003 by Bitstream, Inc. All Rights Reserved. Copyright (c) 2006 by Tavmjong Bah. All Rights Reserved. DejaVu changes are in public domain ) def
/Weight (Book) def
/Version (Version 2.35) def
/ItalicAngle 0.0 def
/isFixedPitch false def
/UnderlinePosition -130 def
/UnderlineThickness 90 def
end readonly def
/CharStrings 34 dict dup begin
/.notdef 0 def
/space{318 0 0 0 0 0 _sc
}_d
/period{318 0 107 0 210 124 _sc
107 124 _m
210 124 _l
210 0 _l
107 0 _l
107 124 _l
_cl}_d
/zero{636 0 66 -13 570 742 _sc
318 664 _m
267 664 229 639 203 589 _c
177 539 165 464 165 364 _c
165 264 177 189 203 139 _c
229 89 267 64 318 64 _c
369 64 407 89 433 139 _c
458 189 471 264 471 364 _c
471 464 458 539 433 589 _c
407 639 369 664 318 664 _c
318 742 _m
399 742 461 709 505 645 _c
548 580 570 486 570 364 _c
570 241 548 147 505 83 _c
461 19 399 -13 318 -13 _c
236 -13 173 19 130 83 _c
87 147 66 241 66 364 _c
66 486 87 580 130 645 _c
173 709 236 742 318 742 _c
_cl}_d
/one{636 0 110 0 544 729 _sc
124 83 _m
285 83 _l
285 639 _l
110 604 _l
110 694 _l
284 729 _l
383 729 _l
383 83 _l
544 83 _l
544 0 _l
124 0 _l
124 83 _l
_cl}_d
/two{{636 0 73 0 536 742 _sc
192 83 _m
536 83 _l
536 0 _l
73 0 _l
73 83 _l
110 121 161 173 226 239 _c
290 304 331 346 348 365 _c
380 400 402 430 414 455 _c
426 479 433 504 433 528 _c
433 566 419 598 392 622 _c
365 646 330 659 286 659 _c
255 659 222 653 188 643 _c
154 632 117 616 78 594 _c
78 694 _l
118 710 155 722 189 730 _c
223 738 255 742 284 742 _c
}_e{359 742 419 723 464 685 _c
509 647 532 597 532 534 _c
532 504 526 475 515 449 _c
504 422 484 390 454 354 _c
446 344 420 317 376 272 _c
332 227 271 164 192 83 _c
_cl}_e}_d
/four{636 0 49 0 580 729 _sc
378 643 _m
129 254 _l
378 254 _l
378 643 _l
352 729 _m
476 729 _l
476 254 _l
580 254 _l
580 172 _l
476 172 _l
476 0 _l
378 0 _l
378 172 _l
49 172 _l
49 267 _l
352 729 _l
_cl}_d
/six{{636 0 70 -13 573 742 _sc
330 404 _m
286 404 251 388 225 358 _c
199 328 186 286 186 234 _c
186 181 199 139 225 109 _c
251 79 286 64 330 64 _c
374 64 409 79 435 109 _c
461 139 474 181 474 234 _c
474 286 461 328 435 358 _c
409 388 374 404 330 404 _c
526 713 _m
526 623 _l
501 635 476 644 451 650 _c
425 656 400 659 376 659 _c
310 659 260 637 226 593 _c
}_e{192 549 172 482 168 394 _c
187 422 211 444 240 459 _c
269 474 301 482 336 482 _c
409 482 467 459 509 415 _c
551 371 573 310 573 234 _c
573 159 550 99 506 54 _c
462 9 403 -13 330 -13 _c
246 -13 181 19 137 83 _c
92 147 70 241 70 364 _c
70 479 97 571 152 639 _c
206 707 280 742 372 742 _c
396 742 421 739 447 735 _c
472 730 498 723 526 713 _c
_cl}_e}_d
/eight{{636 0 68 -13 568 742 _sc
318 346 _m
271 346 234 333 207 308 _c
180 283 167 249 167 205 _c
167 161 180 126 207 101 _c
234 76 271 64 318 64 _c
364 64 401 76 428 102 _c
455 127 469 161 469 205 _c
469 249 455 283 429 308 _c
402 333 365 346 318 346 _c
219 388 _m
177 398 144 418 120 447 _c
96 476 85 511 85 553 _c
85 611 105 657 147 691 _c
188 725 245 742 318 742 _c
}_e{390 742 447 725 489 691 _c
530 657 551 611 551 553 _c
551 511 539 476 515 447 _c
491 418 459 398 417 388 _c
464 377 501 355 528 323 _c
554 291 568 251 568 205 _c
568 134 546 80 503 43 _c
459 5 398 -13 318 -13 _c
237 -13 175 5 132 43 _c
89 80 68 134 68 205 _c
68 251 81 291 108 323 _c
134 355 171 377 219 388 _c
183 544 _m
183 506 194 476 218 455 _c
}_e{242 434 275 424 318 424 _c
360 424 393 434 417 455 _c
441 476 453 506 453 544 _c
453 582 441 611 417 632 _c
393 653 360 664 318 664 _c
275 664 242 653 218 632 _c
194 611 183 582 183 544 _c
_cl}_e}_d
/equal{838 0 106 172 732 454 _sc
106 454 _m
732 454 _l
732 372 _l
106 372 _l
106 454 _l
106 255 _m
732 255 _l
732 172 _l
106 172 _l
106 255 _l
_cl}_d
/A{684 0 8 0 676 729 _sc
342 632 _m
208 269 _l
476 269 _l
342 632 _l
286 729 _m
398 729 _l
676 0 _l
573 0 _l
507 187 _l
178 187 _l
112 0 _l
8 0 _l
286 729 _l
_cl}_d
/B{{686 0 98 0 615 729 _sc
197 348 _m
197 81 _l
355 81 _l
408 81 447 92 473 114 _c
498 136 511 169 511 215 _c
511 260 498 293 473 315 _c
447 337 408 348 355 348 _c
197 348 _l
197 648 _m
197 428 _l
343 428 _l
391 428 426 437 450 455 _c
474 473 486 500 486 538 _c
486 574 474 602 450 620 _c
426 638 391 648 343 648 _c
197 648 _l
98 729 _m
350 729 _l
}_e{425 729 483 713 524 682 _c
564 650 585 606 585 549 _c
585 504 574 468 553 442 _c
532 416 502 399 462 393 _c
510 382 548 360 575 327 _c
601 294 615 253 615 204 _c
615 138 592 88 548 53 _c
504 17 441 0 360 0 _c
98 0 _l
98 729 _l
_cl}_e}_d
/C{{698 0 56 -13 644 742 _sc
644 673 _m
644 569 _l
610 599 575 622 537 638 _c
499 653 460 661 418 661 _c
334 661 270 635 226 584 _c
182 533 160 460 160 364 _c
160 268 182 194 226 143 _c
270 92 334 67 418 67 _c
460 67 499 74 537 90 _c
575 105 610 128 644 159 _c
644 56 _l
609 32 572 15 534 4 _c
496 -7 455 -13 412 -13 _c
302 -13 215 20 151 87 _c
}_e{87 154 56 246 56 364 _c
56 481 87 573 151 641 _c
215 708 302 742 412 742 _c
456 742 497 736 535 725 _c
573 713 610 696 644 673 _c
_cl}_e}_d
/F{575 0 98 0 517 729 _sc
98 729 _m
517 729 _l
517 646 _l
197 646 _l
197 431 _l
486 431 _l
486 348 _l
197 348 _l
197 0 _l
98 0 _l
98 729 _l
_cl}_d
/L{557 0 98 0 552 729 _sc
98 729 _m
197 729 _l
197 83 _l
552 83 _l
552 0 _l
98 0 _l
98 729 _l
_cl}_d
/O{787 0 56 -13 731 742 _sc
394 662 _m
322 662 265 635 223 582 _c
181 528 160 456 160 364 _c
160 272 181 199 223 146 _c
265 92 322 66 394 66 _c
465 66 522 92 564 146 _c
606 199 627 272 627 364 _c
627 456 606 528 564 582 _c
522 635 465 662 394 662 _c
394 742 _m
496 742 577 707 639 639 _c
700 571 731 479 731 364 _c
731 248 700 157 639 89 _c
577 21 496 -13 394 -13 _c
291 -13 209 21 148 89 _c
86 157 56 248 56 364 _c
56 479 86 571 148 639 _c
209 707 291 742 394 742 _c
_cl}_d
/R{{695 0 98 0 666 729 _sc
444 342 _m
465 334 486 319 506 296 _c
526 272 546 240 566 199 _c
666 0 _l
560 0 _l
467 187 _l
443 235 419 268 397 284 _c
374 300 343 308 304 308 _c
197 308 _l
197 0 _l
98 0 _l
98 729 _l
321 729 _l
404 729 466 711 507 677 _c
548 642 569 589 569 519 _c
569 473 558 434 537 404 _c
515 374 484 353 444 342 _c
197 648 _m
197 389 _l
321 389 _l
}_e{368 389 404 400 428 422 _c
452 444 465 476 465 519 _c
465 561 452 593 428 615 _c
404 637 368 648 321 648 _c
197 648 _l
_cl}_e}_d
/Z{685 0 45 0 640 729 _sc
56 729 _m
629 729 _l
629 654 _l
168 83 _l
640 83 _l
640 0 _l
45 0 _l
45 75 _l
506 646 _l
56 646 _l
56 729 _l
_cl}_d
/a{{613 0 60 -13 522 560 _sc
343 275 _m
270 275 220 266 192 250 _c
164 233 150 205 150 165 _c
150 133 160 107 181 89 _c
202 70 231 61 267 61 _c
317 61 357 78 387 114 _c
417 149 432 196 432 255 _c
432 275 _l
343 275 _l
522 312 _m
522 0 _l
432 0 _l
432 83 _l
411 49 385 25 355 10 _c
325 -5 287 -13 243 -13 _c
187 -13 142 2 109 33 _c
76 64 60 106 60 159 _c
}_e{60 220 80 266 122 298 _c
163 329 224 345 306 345 _c
432 345 _l
432 354 _l
432 395 418 427 391 450 _c
364 472 326 484 277 484 _c
245 484 215 480 185 472 _c
155 464 127 453 100 439 _c
100 522 _l
132 534 164 544 195 550 _c
226 556 256 560 286 560 _c
365 560 424 539 463 498 _c
502 457 522 395 522 312 _c
_cl}_e}_d
/c{{550 0 55 -13 488 560 _sc
488 526 _m
488 442 _l
462 456 437 466 411 473 _c
385 480 360 484 334 484 _c
276 484 230 465 198 428 _c
166 391 150 339 150 273 _c
150 206 166 154 198 117 _c
230 80 276 62 334 62 _c
360 62 385 65 411 72 _c
437 79 462 90 488 104 _c
488 21 _l
462 9 436 0 410 -5 _c
383 -10 354 -13 324 -13 _c
242 -13 176 12 128 64 _c
}_e{79 115 55 185 55 273 _c
55 362 79 432 128 483 _c
177 534 244 560 330 560 _c
358 560 385 557 411 551 _c
437 545 463 537 488 526 _c
_cl}_e}_d
/d{{635 0 55 -13 544 760 _sc
454 464 _m
454 760 _l
544 760 _l
544 0 _l
454 0 _l
454 82 _l
435 49 411 25 382 10 _c
353 -5 319 -13 279 -13 _c
213 -13 159 13 117 65 _c
75 117 55 187 55 273 _c
55 359 75 428 117 481 _c
159 533 213 560 279 560 _c
319 560 353 552 382 536 _c
411 520 435 496 454 464 _c
148 273 _m
148 207 161 155 188 117 _c
215 79 253 61 301 61 _c
}_e{348 61 385 79 413 117 _c
440 155 454 207 454 273 _c
454 339 440 390 413 428 _c
385 466 348 485 301 485 _c
253 485 215 466 188 428 _c
161 390 148 339 148 273 _c
_cl}_e}_d
/e{{615 0 55 -13 562 560 _sc
562 296 _m
562 252 _l
149 252 _l
153 190 171 142 205 110 _c
238 78 284 62 344 62 _c
378 62 412 66 444 74 _c
476 82 509 95 541 113 _c
541 28 _l
509 14 476 3 442 -3 _c
408 -9 373 -13 339 -13 _c
251 -13 182 12 131 62 _c
80 112 55 181 55 268 _c
55 357 79 428 127 481 _c
175 533 241 560 323 560 _c
397 560 455 536 498 489 _c
}_e{540 441 562 377 562 296 _c
472 322 _m
471 371 457 410 431 440 _c
404 469 368 484 324 484 _c
274 484 234 469 204 441 _c
174 413 156 373 152 322 _c
472 322 _l
_cl}_e}_d
/f{352 0 23 0 371 760 _sc
371 760 _m
371 685 _l
285 685 _l
253 685 230 678 218 665 _c
205 652 199 629 199 595 _c
199 547 _l
347 547 _l
347 477 _l
199 477 _l
199 0 _l
109 0 _l
109 477 _l
23 477 _l
23 547 _l
109 547 _l
109 585 _l
109 645 123 690 151 718 _c
179 746 224 760 286 760 _c
371 760 _l
_cl}_d
/i{278 0 94 0 184 760 _sc
94 547 _m
184 547 _l
184 0 _l
94 0 _l
94 547 _l
94 760 _m
184 760 _l
184 646 _l
94 646 _l
94 760 _l
_cl}_d
/k{579 0 91 0 576 760 _sc
91 760 _m
181 760 _l
181 311 _l
449 547 _l
564 547 _l
274 291 _l
576 0 _l
459 0 _l
181 267 _l
181 0 _l
91 0 _l
91 760 _l
_cl}_d
/l{278 0 94 0 184 760 _sc
94 760 _m
184 760 _l
184 0 _l
94 0 _l
94 760 _l
_cl}_d
/m{{974 0 91 0 889 560 _sc
520 442 _m
542 482 569 511 600 531 _c
631 550 668 560 711 560 _c
767 560 811 540 842 500 _c
873 460 889 403 889 330 _c
889 0 _l
799 0 _l
799 327 _l
799 379 789 418 771 444 _c
752 469 724 482 686 482 _c
639 482 602 466 575 435 _c
548 404 535 362 535 309 _c
535 0 _l
445 0 _l
445 327 _l
445 379 435 418 417 444 _c
398 469 369 482 331 482 _c
}_e{285 482 248 466 221 435 _c
194 404 181 362 181 309 _c
181 0 _l
91 0 _l
91 547 _l
181 547 _l
181 462 _l
201 495 226 520 255 536 _c
283 552 317 560 357 560 _c
397 560 430 550 458 530 _c
486 510 506 480 520 442 _c
_cl}_e}_d
/n{634 0 91 0 549 560 _sc
549 330 _m
549 0 _l
459 0 _l
459 327 _l
459 379 448 417 428 443 _c
408 469 378 482 338 482 _c
289 482 251 466 223 435 _c
195 404 181 362 181 309 _c
181 0 _l
91 0 _l
91 547 _l
181 547 _l
181 462 _l
202 494 227 519 257 535 _c
286 551 320 560 358 560 _c
420 560 468 540 500 501 _c
532 462 549 405 549 330 _c
_cl}_d
/o{612 0 55 -13 557 560 _sc
306 484 _m
258 484 220 465 192 427 _c
164 389 150 338 150 273 _c
150 207 163 156 191 118 _c
219 80 257 62 306 62 _c
354 62 392 80 420 118 _c
448 156 462 207 462 273 _c
462 337 448 389 420 427 _c
392 465 354 484 306 484 _c
306 560 _m
384 560 445 534 490 484 _c
534 433 557 363 557 273 _c
557 183 534 113 490 63 _c
445 12 384 -13 306 -13 _c
227 -13 165 12 121 63 _c
77 113 55 183 55 273 _c
55 363 77 433 121 484 _c
165 534 227 560 306 560 _c
_cl}_d
/p{{635 0 91 -207 580 560 _sc
181 82 _m
181 -207 _l
91 -207 _l
91 547 _l
181 547 _l
181 464 _l
199 496 223 520 252 536 _c
281 552 316 560 356 560 _c
422 560 476 533 518 481 _c
559 428 580 359 580 273 _c
580 187 559 117 518 65 _c
476 13 422 -13 356 -13 _c
316 -13 281 -5 252 10 _c
223 25 199 49 181 82 _c
487 273 _m
487 339 473 390 446 428 _c
418 466 381 485 334 485 _c
}_e{286 485 249 466 222 428 _c
194 390 181 339 181 273 _c
181 207 194 155 222 117 _c
249 79 286 61 334 61 _c
381 61 418 79 446 117 _c
473 155 487 207 487 273 _c
_cl}_e}_d
/r{411 0 91 0 411 560 _sc
411 463 _m
401 469 390 473 378 476 _c
366 478 353 480 339 480 _c
288 480 249 463 222 430 _c
194 397 181 350 181 288 _c
181 0 _l
91 0 _l
91 547 _l
181 547 _l
181 462 _l
199 495 224 520 254 536 _c
284 552 321 560 365 560 _c
371 560 378 559 386 559 _c
393 558 401 557 411 555 _c
411 463 _l
_cl}_d
/s{{521 0 54 -13 472 560 _sc
443 531 _m
443 446 _l
417 458 391 468 364 475 _c
336 481 308 485 279 485 _c
234 485 200 478 178 464 _c
156 450 145 430 145 403 _c
145 382 153 366 169 354 _c
185 342 217 330 265 320 _c
296 313 _l
360 299 405 279 432 255 _c
458 230 472 195 472 151 _c
472 100 452 60 412 31 _c
372 1 316 -13 246 -13 _c
216 -13 186 -10 154 -5 _c
}_e{122 0 89 8 54 20 _c
54 113 _l
87 95 120 82 152 74 _c
184 65 216 61 248 61 _c
290 61 323 68 346 82 _c
368 96 380 117 380 144 _c
380 168 371 187 355 200 _c
339 213 303 226 247 238 _c
216 245 _l
160 257 119 275 95 299 _c
70 323 58 356 58 399 _c
58 450 76 490 112 518 _c
148 546 200 560 268 560 _c
301 560 332 557 362 552 _c
391 547 418 540 443 531 _c
}_e{_cl}_e}_d
/t{392 0 27 0 368 702 _sc
183 702 _m
183 547 _l
368 547 _l
368 477 _l
183 477 _l
183 180 _l
183 135 189 106 201 94 _c
213 81 238 75 276 75 _c
368 75 _l
368 0 _l
276 0 _l
206 0 158 13 132 39 _c
106 65 93 112 93 180 _c
93 477 _l
27 477 _l
27 547 _l
93 547 _l
93 702 _l
183 702 _l
_cl}_d
/y{592 0 30 -207 562 547 _sc
322 -50 _m
296 -114 271 -157 247 -177 _c
223 -197 191 -207 151 -207 _c
79 -207 _l
79 -132 _l
132 -132 _l
156 -132 175 -126 189 -114 _c
203 -102 218 -75 235 -31 _c
251 9 _l
30 547 _l
125 547 _l
296 119 _l
467 547 _l
562 547 _l
322 -50 _l
_cl}_d
end readonly def

/BuildGlyph
 {exch begin
 CharStrings exch
 2 copy known not{pop /.notdef}if
 true 3 1 roll get exec
 end}_d

/BuildChar {
 1 index /Encoding get exch get
 1 index /BuildGlyph get exec
}_d

FontName currentdict end definefont pop
end
%%EndProlog
mpldict begin
-39.523 182.92 translate
691.047 426.159 0 0 clipbox
gsave
0 0 m
691.046875 0 l
691.046875 426.159375 l
0 426.159375 l
cl
1.000 setgray
fill
grestore
gsave
45.996875 33.559375 m
213.246875 33.559375 l
213.246875 304.959375 l
45.996875 304.959375 l
cl
1.000 setgray
fill
grestore
gsave
167.2 271.4 46 33.56 clipbox
51.965554 33.559375 m
69.744597 33.559375 l
69.744597 41.085462 l
51.965554 41.085462 l
cl
0.122 0.467 0.706 setrgbcolor
fill
grestore
gsave
167.2 271.4 46 33.56 clipbox
102.76282 33.559375 m
120.541864 33.559375 l
120.541864 60.101232 l
102.76282 60.101232 l
cl
0.122 0.467 0.706 setrgbcolor
fill
grestore
gsave
167.2 271.4 46 33.56 clipbox
153.560087 33.559375 m
171.33913 33.559375 l
171.33913 33.559375 l
153.560087 33.559375 l
cl
0.122 0.467 0.706 setrgbcolor
fill
grestore
gsave
167.2 271.4 46 33.56 clipbox
51.965554 41.085462 m
69.744597 41.085462 l
69.744597 41.085462 l
51.965554 41.085462 l
cl
1.000 0.498 0.055 setrgbcolor
fill
grestore
gsave
167.2 271.4 46 33.56 clipbox
102.76282 60.101232 m
120.541864 60.101232 l
120.541864 198.709092 l
102.76282 198.709092 l
cl
1.000 0.498 0.055 setrgbcolor
fill
grestore
gsave
167.2 271.4 46 33.56 clipbox
153.560087 33.559375 m
171.33913 33.559375 l
171.33913 132.28357 l
153.560087 132.28357 l
cl
1.000 0.498 0.055 setrgbcolor
fill
grestore
0.800 setlinewidth
1 setlinejoin
2 setlinecap
[] 0 setdash
0.690 setgray
gsave
167.2 271.4 46 33.56 clipbox
60.855075 33.559375 m
60.855075 304.959375 l
stroke
grestore
0 setlinecap
0.000 setgray
gsave
/o {
gsave
newpath
translate
0.8 setlinewidth
1 setlinejoin
0 setlinecap
0 -5 m
0 5 l

gsave
0.000 setgray
fill
grestore
stroke
grestore
} bind def
60.8551 33.5594 o
grestore
gsave
/o {
gsave
newpath
translate
0.8 setlinewidth
1 setlinejoin
0 setlinecap
0 -5 m
0 5 l

gsave
0.000 setgray
fill
grestore
stroke
grestore
} bind def
60.8551 304.959 o
grestore
/DejaVuSans findfont
20.000 scalefont
setfont
gsave
54.011325 11.356250 translate
0.000000 rotate
0.000000 0.000000 m /A glyphshow
grestore
2 setlinecap
0.690 setgray
gsave
167.2 271.4 46 33.56 clipbox
111.652342 33.559375 m
111.652342 304.959375 l
stroke
grestore
0 setlinecap
0.000 setgray
gsave
/o {
gsave
newpath
translate
0.8 setlinewidth
1 setlinejoin
0 setlinecap
0 -5 m
0 5 l

gsave
0.000 setgray
fill
grestore
stroke
grestore
} bind def
111.652 33.5594 o
grestore
gsave
/o {
gsave
newpath
translate
0.8 setlinewidth
1 setlinejoin
0 setlinecap
0 -5 m
0 5 l

gsave
0.000 setgray
fill
grestore
stroke
grestore
} bind def
111.652 304.959 o
grestore
gsave
104.792967 11.356250 translate
0.000000 rotate
0.000000 0.000000 m /B glyphshow
grestore
2 setlinecap
0.690 setgray
gsave
167.2 271.4 46 33.56 clipbox
162.449608 33.559375 m
162.449608 304.959375 l
stroke
grestore
0 setlinecap
0.000 setgray
gsave
/o {
gsave
newpath
translate
0.8 setlinewidth
1 setlinejoin
0 setlinecap
0 -5 m
0 5 l

gsave
0.000 setgray
fill
grestore
stroke
grestore
} bind def
162.45 33.5594 o
grestore
gsave
/o {
gsave
newpath
translate
0.8 setlinewidth
1 setlinejoin
0 setlinecap
0 -5 m
0 5 l

gsave
0.000 setgray
fill
grestore
stroke
grestore
} bind def
162.45 304.959 o
grestore
gsave
155.465233 11.356250 translate
0.000000 rotate
0.000000 0.000000 m /C glyphshow
grestore
0.600 setlinewidth
gsave
/o {
gsave
newpath
translate
0.6 setlinewidth
1 setlinejoin
0 setlinecap
0 -3 m
0 3 l

gsave
0.000 setgray
fill
grestore
stroke
grestore
} bind def
213.247 33.5594 o
grestore
gsave
/o {
gsave
newpath
translate
0.6 setlinewidth
1 setlinejoin
0 setlinecap
0 -3 m
0 3 l

gsave
0.000 setgray
fill
grestore
stroke
grestore
} bind def
213.247 304.959 o
grestore
0.800 setlinewidth
2 setlinecap
0.690 setgray
gsave
167.2 271.4 46 33.56 clipbox
45.996875 33.559375 m
213.246875 33.559375 l
stroke
grestore
0 setlinecap
0.000 setgray
gsave
/o {
gsave
newpath
translate
0.8 setlinewidth
1 setlinejoin
0 setlinecap
5 -0 m
-5 0 l

gsave
0.000 setgray
fill
grestore
stroke
grestore
} bind def
45.9969 33.5594 o
grestore
gsave
/o {
gsave
newpath
translate
0.8 setlinewidth
1 setlinejoin
0 setlinecap
5 -0 m
-5 0 l

gsave
0.000 setgray
fill
grestore
stroke
grestore
} bind def
213.247 33.5594 o
grestore
gsave
7.200000 25.957813 translate
0.000000 rotate
0.000000 0.000000 m /zero glyphshow
12.724609 0.000000 m /period glyphshow
19.082031 0.000000 m /zero glyphshow
grestore
2 setlinecap
0.690 setgray
gsave
167.2 271.4 46 33.56 clipbox
45.996875 87.839375 m
213.246875 87.839375 l
stroke
grestore
0 setlinecap
0.000 setgray
gsave
/o {
gsave
newpath
translate
0.8 setlinewidth
1 setlinejoin
0 setlinecap
5 -0 m
-5 0 l

gsave
0.000 setgray
fill
grestore
stroke
grestore
} bind def
45.9969 87.8394 o
grestore
gsave
/o {
gsave
newpath
translate
0.8 setlinewidth
1 setlinejoin
0 setlinecap
5 -0 m
-5 0 l

gsave
0.000 setgray
fill
grestore
stroke
grestore
} bind def
213.247 87.8394 o
grestore
gsave
7.200000 80.237813 translate
0.000000 rotate
0.000000 0.000000 m /zero glyphshow
12.724609 0.000000 m /period glyphshow
19.082031 0.000000 m /two glyphshow
grestore
2 setlinecap
0.690 setgray
gsave
167.2 271.4 46 33.56 clipbox
45.996875 142.119375 m
213.246875 142.119375 l
stroke
grestore
0 setlinecap
0.000 setgray
gsave
/o {
gsave
newpath
translate
0.8 setlinewidth
1 setlinejoin
0 setlinecap
5 -0 m
-5 0 l

gsave
0.000 setgray
fill
grestore
stroke
grestore
} bind def
45.9969 142.119 o
grestore
gsave
/o {
gsave
newpath
translate
0.8 setlinewidth
1 setlinejoin
0 setlinecap
5 -0 m
-5 0 l

gsave
0.000 setgray
fill
grestore
stroke
grestore
} bind def
213.247 142.119 o
grestore
gsave
7.200000 134.517812 translate
0.000000 rotate
0.000000 0.000000 m /zero glyphshow
12.724609 0.000000 m /period glyphshow
19.082031 0.000000 m /four glyphshow
grestore
2 setlinecap
0.690 setgray
gsave
167.2 271.4 46 33.56 clipbox
45.996875 196.399375 m
213.246875 196.399375 l
stroke
grestore
0 setlinecap
0.000 setgray
gsave
/o {
gsave
newpath
translate
0.8 setlinewidth
1 setlinejoin
0 setlinecap
5 -0 m
-5 0 l

gsave
0.000 setgray
fill
grestore
stroke
grestore
} bind def
45.9969 196.399 o
grestore
gsave
/o {
gsave
newpath
translate
0.8 setlinewidth
1 setlinejoin
0 setlinecap
5 -0 m
-5 0 l

gsave
0.000 setgray
fill
grestore
stroke
grestore
} bind def
213.247 196.399 o
grestore
gsave
7.200000 188.797813 translate
0.000000 rotate
0.000000 0.000000 m /zero glyphshow
12.724609 0.000000 m /period glyphshow
19.082031 0.000000 m /six glyphshow
grestore
2 setlinecap
0.690 setgray
gsave
167.2 271.4 46 33.56 clipbox
45.996875 250.679375 m
213.246875 250.679375 l
stroke
grestore
0 setlinecap
0.000 setgray
gsave
/o {
gsave
newpath
translate
0.8 setlinewidth
1 setlinejoin
0 setlinecap
5 -0 m
-5 0 l

gsave
0.000 setgray
fill
grestore
stroke
grestore
} bind def
45.9969 250.679 o
grestore
gsave
/o {
gsave
newpath
translate
0.8 setlinewidth
1 setlinejoin
0 setlinecap
5 -0 m
-5 0 l

gsave
0.000 setgray
fill
grestore
stroke
grestore
} bind def
213.247 250.679 o
grestore
gsave
7.200000 243.077812 translate
0.000000 rotate
0.000000 0.000000 m /zero glyphshow
12.724609 0.000000 m /period glyphshow
19.082031 0.000000 m /eight glyphshow
grestore
2 setlinecap
0.690 setgray
gsave
167.2 271.4 46 33.56 clipbox
45.996875 304.959375 m
213.246875 304.959375 l
stroke
grestore
0 setlinecap
0.000 setgray
gsave
/o {
gsave
newpath
translate
0.8 setlinewidth
1 setlinejoin
0 setlinecap
5 -0 m
-5 0 l

gsave
0.000 setgray
fill
grestore
stroke
grestore
} bind def
45.9969 304.959 o
grestore
gsave
/o {
gsave
newpath
translate
0.8 setlinewidth
1 setlinejoin
0 setlinecap
5 -0 m
-5 0 l

gsave
0.000 setgray
fill
grestore
stroke
grestore
} bind def
213.247 304.959 o
grestore
gsave
7.200000 297.357812 translate
0.000000 rotate
0.000000 0.000000 m /one glyphshow
12.724609 0.000000 m /period glyphshow
19.082031 0.000000 m /zero glyphshow
grestore
2.000 setlinewidth
0 setlinejoin
2 setlinecap
[] 0 setdash
gsave
45.996875 33.559375 m
45.996875 304.959375 l
stroke
grestore
gsave
213.246875 33.559375 m
213.246875 304.959375 l
stroke
grestore
gsave
45.996875 33.559375 m
213.246875 33.559375 l
stroke
grestore
gsave
45.996875 304.959375 m
213.246875 304.959375 l
stroke
grestore
gsave
92.129687 310.959375 translate
0.000000 rotate
0.000000 0.000000 m /Z glyphshow
13.701172 0.000000 m /equal glyphshow
30.458984 0.000000 m /zero glyphshow
43.183594 0.000000 m /period glyphshow
49.541016 0.000000 m /zero glyphshow
62.265625 0.000000 m /two glyphshow
grestore
gsave
278.796875 33.559375 m
446.046875 33.559375 l
446.046875 304.959375 l
278.796875 304.959375 l
cl
1.000 setgray
fill
grestore
gsave
167.2 271.4 278.8 33.56 clipbox
284.765554 33.559375 m
302.544597 33.559375 l
302.544597 42.910492 l
284.765554 42.910492 l
cl
0.122 0.467 0.706 setrgbcolor
fill
grestore
gsave
167.2 271.4 278.8 33.56 clipbox
335.56282 33.559375 m
353.341864 33.559375 l
353.341864 61.915763 l
335.56282 61.915763 l
cl
0.122 0.467 0.706 setrgbcolor
fill
grestore
gsave
167.2 271.4 278.8 33.56 clipbox
386.360087 33.559375 m
404.13913 33.559375 l
404.13913 33.747547 l
386.360087 33.747547 l
cl
0.122 0.467 0.706 setrgbcolor
fill
grestore
gsave
167.2 271.4 278.8 33.56 clipbox
284.765554 42.910492 m
302.544597 42.910492 l
302.544597 42.910492 l
284.765554 42.910492 l
cl
1.000 0.498 0.055 setrgbcolor
fill
grestore
gsave
167.2 271.4 278.8 33.56 clipbox
335.56282 61.915763 m
353.341864 61.915763 l
353.341864 182.8379 l
335.56282 182.8379 l
cl
1.000 0.498 0.055 setrgbcolor
fill
grestore
gsave
167.2 271.4 278.8 33.56 clipbox
386.360087 33.747547 m
404.13913 33.747547 l
404.13913 146.329733 l
386.360087 146.329733 l
cl
1.000 0.498 0.055 setrgbcolor
fill
grestore
0.800 setlinewidth
1 setlinejoin
[] 0 setdash
0.690 setgray
gsave
167.2 271.4 278.8 33.56 clipbox
293.655075 33.559375 m
293.655075 304.959375 l
stroke
grestore
0 setlinecap
0.000 setgray
gsave
/o {
gsave
newpath
translate
0.8 setlinewidth
1 setlinejoin
0 setlinecap
0 -5 m
0 5 l

gsave
0.000 setgray
fill
grestore
stroke
grestore
} bind def
293.655 33.5594 o
grestore
gsave
/o {
gsave
newpath
translate
0.8 setlinewidth
1 setlinejoin
0 setlinecap
0 -5 m
0 5 l

gsave
0.000 setgray
fill
grestore
stroke
grestore
} bind def
293.655 304.959 o
grestore
gsave
286.811325 11.356250 translate
0.000000 rotate
0.000000 0.000000 m /A glyphshow
grestore
2 setlinecap
0.690 setgray
gsave
167.2 271.4 278.8 33.56 clipbox
344.452342 33.559375 m
344.452342 304.959375 l
stroke
grestore
0 setlinecap
0.000 setgray
gsave
/o {
gsave
newpath
translate
0.8 setlinewidth
1 setlinejoin
0 setlinecap
0 -5 m
0 5 l

gsave
0.000 setgray
fill
grestore
stroke
grestore
} bind def
344.452 33.5594 o
grestore
gsave
/o {
gsave
newpath
translate
0.8 setlinewidth
1 setlinejoin
0 setlinecap
0 -5 m
0 5 l

gsave
0.000 setgray
fill
grestore
stroke
grestore
} bind def
344.452 304.959 o
grestore
gsave
337.592967 11.356250 translate
0.000000 rotate
0.000000 0.000000 m /B glyphshow
grestore
2 setlinecap
0.690 setgray
gsave
167.2 271.4 278.8 33.56 clipbox
395.249608 33.559375 m
395.249608 304.959375 l
stroke
grestore
0 setlinecap
0.000 setgray
gsave
/o {
gsave
newpath
translate
0.8 setlinewidth
1 setlinejoin
0 setlinecap
0 -5 m
0 5 l

gsave
0.000 setgray
fill
grestore
stroke
grestore
} bind def
395.25 33.5594 o
grestore
gsave
/o {
gsave
newpath
translate
0.8 setlinewidth
1 setlinejoin
0 setlinecap
0 -5 m
0 5 l

gsave
0.000 setgray
fill
grestore
stroke
grestore
} bind def
395.25 304.959 o
grestore
gsave
388.265233 11.356250 translate
0.000000 rotate
0.000000 0.000000 m /C glyphshow
grestore
0.600 setlinewidth
gsave
/o {
gsave
newpath
translate
0.6 setlinewidth
1 setlinejoin
0 setlinecap
0 -3 m
0 3 l

gsave
0.000 setgray
fill
grestore
stroke
grestore
} bind def
446.047 33.5594 o
grestore
gsave
/o {
gsave
newpath
translate
0.6 setlinewidth
1 setlinejoin
0 setlinecap
0 -3 m
0 3 l

gsave
0.000 setgray
fill
grestore
stroke
grestore
} bind def
446.047 304.959 o
grestore
0.800 setlinewidth
2 setlinecap
0.690 setgray
gsave
167.2 271.4 278.8 33.56 clipbox
278.796875 33.559375 m
446.046875 33.559375 l
stroke
grestore
0 setlinecap
0.000 setgray
gsave
/o {
gsave
newpath
translate
0.8 setlinewidth
1 setlinejoin
0 setlinecap
5 -0 m
-5 0 l

gsave
0.000 setgray
fill
grestore
stroke
grestore
} bind def
278.797 33.5594 o
grestore
gsave
/o {
gsave
newpath
translate
0.8 setlinewidth
1 setlinejoin
0 setlinecap
5 -0 m
-5 0 l

gsave
0.000 setgray
fill
grestore
stroke
grestore
} bind def
446.047 33.5594 o
grestore
gsave
240.000000 25.957813 translate
0.000000 rotate
0.000000 0.000000 m /zero glyphshow
12.724609 0.000000 m /period glyphshow
19.082031 0.000000 m /zero glyphshow
grestore
2 setlinecap
0.690 setgray
gsave
167.2 271.4 278.8 33.56 clipbox
278.796875 87.839375 m
446.046875 87.839375 l
stroke
grestore
0 setlinecap
0.000 setgray
gsave
/o {
gsave
newpath
translate
0.8 setlinewidth
1 setlinejoin
0 setlinecap
5 -0 m
-5 0 l

gsave
0.000 setgray
fill
grestore
stroke
grestore
} bind def
278.797 87.8394 o
grestore
gsave
/o {
gsave
newpath
translate
0.8 setlinewidth
1 setlinejoin
0 setlinecap
5 -0 m
-5 0 l

gsave
0.000 setgray
fill
grestore
stroke
grestore
} bind def
446.047 87.8394 o
grestore
gsave
240.000000 80.237813 translate
0.000000 rotate
0.000000 0.000000 m /zero glyphshow
12.724609 0.000000 m /period glyphshow
19.082031 0.000000 m /two glyphshow
grestore
2 setlinecap
0.690 setgray
gsave
167.2 271.4 278.8 33.56 clipbox
278.796875 142.119375 m
446.046875 142.119375 l
stroke
grestore
0 setlinecap
0.000 setgray
gsave
/o {
gsave
newpath
translate
0.8 setlinewidth
1 setlinejoin
0 setlinecap
5 -0 m
-5 0 l

gsave
0.000 setgray
fill
grestore
stroke
grestore
} bind def
278.797 142.119 o
grestore
gsave
/o {
gsave
newpath
translate
0.8 setlinewidth
1 setlinejoin
0 setlinecap
5 -0 m
-5 0 l

gsave
0.000 setgray
fill
grestore
stroke
grestore
} bind def
446.047 142.119 o
grestore
gsave
240.000000 134.517812 translate
0.000000 rotate
0.000000 0.000000 m /zero glyphshow
12.724609 0.000000 m /period glyphshow
19.082031 0.000000 m /four glyphshow
grestore
2 setlinecap
0.690 setgray
gsave
167.2 271.4 278.8 33.56 clipbox
278.796875 196.399375 m
446.046875 196.399375 l
stroke
grestore
0 setlinecap
0.000 setgray
gsave
/o {
gsave
newpath
translate
0.8 setlinewidth
1 setlinejoin
0 setlinecap
5 -0 m
-5 0 l

gsave
0.000 setgray
fill
grestore
stroke
grestore
} bind def
278.797 196.399 o
grestore
gsave
/o {
gsave
newpath
translate
0.8 setlinewidth
1 setlinejoin
0 setlinecap
5 -0 m
-5 0 l

gsave
0.000 setgray
fill
grestore
stroke
grestore
} bind def
446.047 196.399 o
grestore
gsave
240.000000 188.797813 translate
0.000000 rotate
0.000000 0.000000 m /zero glyphshow
12.724609 0.000000 m /period glyphshow
19.082031 0.000000 m /six glyphshow
grestore
2 setlinecap
0.690 setgray
gsave
167.2 271.4 278.8 33.56 clipbox
278.796875 250.679375 m
446.046875 250.679375 l
stroke
grestore
0 setlinecap
0.000 setgray
gsave
/o {
gsave
newpath
translate
0.8 setlinewidth
1 setlinejoin
0 setlinecap
5 -0 m
-5 0 l

gsave
0.000 setgray
fill
grestore
stroke
grestore
} bind def
278.797 250.679 o
grestore
gsave
/o {
gsave
newpath
translate
0.8 setlinewidth
1 setlinejoin
0 setlinecap
5 -0 m
-5 0 l

gsave
0.000 setgray
fill
grestore
stroke
grestore
} bind def
446.047 250.679 o
grestore
gsave
240.000000 243.077812 translate
0.000000 rotate
0.000000 0.000000 m /zero glyphshow
12.724609 0.000000 m /period glyphshow
19.082031 0.000000 m /eight glyphshow
grestore
2 setlinecap
0.690 setgray
gsave
167.2 271.4 278.8 33.56 clipbox
278.796875 304.959375 m
446.046875 304.959375 l
stroke
grestore
0 setlinecap
0.000 setgray
gsave
/o {
gsave
newpath
translate
0.8 setlinewidth
1 setlinejoin
0 setlinecap
5 -0 m
-5 0 l

gsave
0.000 setgray
fill
grestore
stroke
grestore
} bind def
278.797 304.959 o
grestore
gsave
/o {
gsave
newpath
translate
0.8 setlinewidth
1 setlinejoin
0 setlinecap
5 -0 m
-5 0 l

gsave
0.000 setgray
fill
grestore
stroke
grestore
} bind def
446.047 304.959 o
grestore
gsave
240.000000 297.357812 translate
0.000000 rotate
0.000000 0.000000 m /one glyphshow
12.724609 0.000000 m /period glyphshow
19.082031 0.000000 m /zero glyphshow
grestore
2.000 setlinewidth
0 setlinejoin
2 setlinecap
[] 0 setdash
gsave
278.796875 33.559375 m
278.796875 304.959375 l
stroke
grestore
gsave
446.046875 33.559375 m
446.046875 304.959375 l
stroke
grestore
gsave
278.796875 33.559375 m
446.046875 33.559375 l
stroke
grestore
gsave
278.796875 304.959375 m
446.046875 304.959375 l
stroke
grestore
gsave
324.929688 310.959375 translate
0.000000 rotate
0.000000 0.000000 m /Z glyphshow
13.701172 0.000000 m /equal glyphshow
30.458984 0.000000 m /zero glyphshow
43.183594 0.000000 m /period glyphshow
49.541016 0.000000 m /zero glyphshow
62.265625 0.000000 m /one glyphshow
grestore
gsave
511.596875 33.559375 m
678.846875 33.559375 l
678.846875 304.959375 l
511.596875 304.959375 l
cl
1.000 setgray
fill
grestore
gsave
167.3 271.4 511.6 33.56 clipbox
517.565554 33.559375 m
535.344597 33.559375 l
535.344597 48.210052 l
517.565554 48.210052 l
cl
0.122 0.467 0.706 setrgbcolor
fill
grestore
gsave
167.3 271.4 511.6 33.56 clipbox
568.36282 33.559375 m
586.141864 33.559375 l
586.141864 69.944034 l
568.36282 69.944034 l
cl
0.122 0.467 0.706 setrgbcolor
fill
grestore
gsave
167.3 271.4 511.6 33.56 clipbox
619.160087 33.559375 m
636.93913 33.559375 l
636.93913 34.249153 l
619.160087 34.249153 l
cl
0.122 0.467 0.706 setrgbcolor
fill
grestore
gsave
167.3 271.4 511.6 33.56 clipbox
517.565554 48.210052 m
535.344597 48.210052 l
535.344597 48.210052 l
517.565554 48.210052 l
cl
1.000 0.498 0.055 setrgbcolor
fill
grestore
gsave
167.3 271.4 511.6 33.56 clipbox
568.36282 69.944034 m
586.141864 69.944034 l
586.141864 181.107726 l
568.36282 181.107726 l
cl
1.000 0.498 0.055 setrgbcolor
fill
grestore
gsave
167.3 271.4 511.6 33.56 clipbox
619.160087 34.249153 m
636.93913 34.249153 l
636.93913 142.760346 l
619.160087 142.760346 l
cl
1.000 0.498 0.055 setrgbcolor
fill
grestore
0.800 setlinewidth
1 setlinejoin
[] 0 setdash
0.690 setgray
gsave
167.3 271.4 511.6 33.56 clipbox
526.455075 33.559375 m
526.455075 304.959375 l
stroke
grestore
0 setlinecap
0.000 setgray
gsave
/o {
gsave
newpath
translate
0.8 setlinewidth
1 setlinejoin
0 setlinecap
0 -5 m
0 5 l

gsave
0.000 setgray
fill
grestore
stroke
grestore
} bind def
526.455 33.5594 o
grestore
gsave
/o {
gsave
newpath
translate
0.8 setlinewidth
1 setlinejoin
0 setlinecap
0 -5 m
0 5 l

gsave
0.000 setgray
fill
grestore
stroke
grestore
} bind def
526.455 304.959 o
grestore
gsave
519.611325 11.356250 translate
0.000000 rotate
0.000000 0.000000 m /A glyphshow
grestore
2 setlinecap
0.690 setgray
gsave
167.3 271.4 511.6 33.56 clipbox
577.252342 33.559375 m
577.252342 304.959375 l
stroke
grestore
0 setlinecap
0.000 setgray
gsave
/o {
gsave
newpath
translate
0.8 setlinewidth
1 setlinejoin
0 setlinecap
0 -5 m
0 5 l

gsave
0.000 setgray
fill
grestore
stroke
grestore
} bind def
577.252 33.5594 o
grestore
gsave
/o {
gsave
newpath
translate
0.8 setlinewidth
1 setlinejoin
0 setlinecap
0 -5 m
0 5 l

gsave
0.000 setgray
fill
grestore
stroke
grestore
} bind def
577.252 304.959 o
grestore
gsave
570.392967 11.356250 translate
0.000000 rotate
0.000000 0.000000 m /B glyphshow
grestore
2 setlinecap
0.690 setgray
gsave
167.3 271.4 511.6 33.56 clipbox
628.049608 33.559375 m
628.049608 304.959375 l
stroke
grestore
0 setlinecap
0.000 setgray
gsave
/o {
gsave
newpath
translate
0.8 setlinewidth
1 setlinejoin
0 setlinecap
0 -5 m
0 5 l

gsave
0.000 setgray
fill
grestore
stroke
grestore
} bind def
628.05 33.5594 o
grestore
gsave
/o {
gsave
newpath
translate
0.8 setlinewidth
1 setlinejoin
0 setlinecap
0 -5 m
0 5 l

gsave
0.000 setgray
fill
grestore
stroke
grestore
} bind def
628.05 304.959 o
grestore
gsave
621.065233 11.356250 translate
0.000000 rotate
0.000000 0.000000 m /C glyphshow
grestore
0.600 setlinewidth
gsave
/o {
gsave
newpath
translate
0.6 setlinewidth
1 setlinejoin
0 setlinecap
0 -3 m
0 3 l

gsave
0.000 setgray
fill
grestore
stroke
grestore
} bind def
678.847 33.5594 o
grestore
gsave
/o {
gsave
newpath
translate
0.6 setlinewidth
1 setlinejoin
0 setlinecap
0 -3 m
0 3 l

gsave
0.000 setgray
fill
grestore
stroke
grestore
} bind def
678.847 304.959 o
grestore
0.800 setlinewidth
2 setlinecap
0.690 setgray
gsave
167.3 271.4 511.6 33.56 clipbox
511.596875 33.559375 m
678.846875 33.559375 l
stroke
grestore
0 setlinecap
0.000 setgray
gsave
/o {
gsave
newpath
translate
0.8 setlinewidth
1 setlinejoin
0 setlinecap
5 -0 m
-5 0 l

gsave
0.000 setgray
fill
grestore
stroke
grestore
} bind def
511.597 33.5594 o
grestore
gsave
/o {
gsave
newpath
translate
0.8 setlinewidth
1 setlinejoin
0 setlinecap
5 -0 m
-5 0 l

gsave
0.000 setgray
fill
grestore
stroke
grestore
} bind def
678.847 33.5594 o
grestore
gsave
472.800000 25.957813 translate
0.000000 rotate
0.000000 0.000000 m /zero glyphshow
12.724609 0.000000 m /period glyphshow
19.082031 0.000000 m /zero glyphshow
grestore
2 setlinecap
0.690 setgray
gsave
167.3 271.4 511.6 33.56 clipbox
511.596875 87.839375 m
678.846875 87.839375 l
stroke
grestore
0 setlinecap
0.000 setgray
gsave
/o {
gsave
newpath
translate
0.8 setlinewidth
1 setlinejoin
0 setlinecap
5 -0 m
-5 0 l

gsave
0.000 setgray
fill
grestore
stroke
grestore
} bind def
511.597 87.8394 o
grestore
gsave
/o {
gsave
newpath
translate
0.8 setlinewidth
1 setlinejoin
0 setlinecap
5 -0 m
-5 0 l

gsave
0.000 setgray
fill
grestore
stroke
grestore
} bind def
678.847 87.8394 o
grestore
gsave
472.800000 80.237813 translate
0.000000 rotate
0.000000 0.000000 m /zero glyphshow
12.724609 0.000000 m /period glyphshow
19.082031 0.000000 m /two glyphshow
grestore
2 setlinecap
0.690 setgray
gsave
167.3 271.4 511.6 33.56 clipbox
511.596875 142.119375 m
678.846875 142.119375 l
stroke
grestore
0 setlinecap
0.000 setgray
gsave
/o {
gsave
newpath
translate
0.8 setlinewidth
1 setlinejoin
0 setlinecap
5 -0 m
-5 0 l

gsave
0.000 setgray
fill
grestore
stroke
grestore
} bind def
511.597 142.119 o
grestore
gsave
/o {
gsave
newpath
translate
0.8 setlinewidth
1 setlinejoin
0 setlinecap
5 -0 m
-5 0 l

gsave
0.000 setgray
fill
grestore
stroke
grestore
} bind def
678.847 142.119 o
grestore
gsave
472.800000 134.517812 translate
0.000000 rotate
0.000000 0.000000 m /zero glyphshow
12.724609 0.000000 m /period glyphshow
19.082031 0.000000 m /four glyphshow
grestore
2 setlinecap
0.690 setgray
gsave
167.3 271.4 511.6 33.56 clipbox
511.596875 196.399375 m
678.846875 196.399375 l
stroke
grestore
0 setlinecap
0.000 setgray
gsave
/o {
gsave
newpath
translate
0.8 setlinewidth
1 setlinejoin
0 setlinecap
5 -0 m
-5 0 l

gsave
0.000 setgray
fill
grestore
stroke
grestore
} bind def
511.597 196.399 o
grestore
gsave
/o {
gsave
newpath
translate
0.8 setlinewidth
1 setlinejoin
0 setlinecap
5 -0 m
-5 0 l

gsave
0.000 setgray
fill
grestore
stroke
grestore
} bind def
678.847 196.399 o
grestore
gsave
472.800000 188.797813 translate
0.000000 rotate
0.000000 0.000000 m /zero glyphshow
12.724609 0.000000 m /period glyphshow
19.082031 0.000000 m /six glyphshow
grestore
2 setlinecap
0.690 setgray
gsave
167.3 271.4 511.6 33.56 clipbox
511.596875 250.679375 m
678.846875 250.679375 l
stroke
grestore
0 setlinecap
0.000 setgray
gsave
/o {
gsave
newpath
translate
0.8 setlinewidth
1 setlinejoin
0 setlinecap
5 -0 m
-5 0 l

gsave
0.000 setgray
fill
grestore
stroke
grestore
} bind def
511.597 250.679 o
grestore
gsave
/o {
gsave
newpath
translate
0.8 setlinewidth
1 setlinejoin
0 setlinecap
5 -0 m
-5 0 l

gsave
0.000 setgray
fill
grestore
stroke
grestore
} bind def
678.847 250.679 o
grestore
gsave
472.800000 243.077812 translate
0.000000 rotate
0.000000 0.000000 m /zero glyphshow
12.724609 0.000000 m /period glyphshow
19.082031 0.000000 m /eight glyphshow
grestore
2 setlinecap
0.690 setgray
gsave
167.3 271.4 511.6 33.56 clipbox
511.596875 304.959375 m
678.846875 304.959375 l
stroke
grestore
0 setlinecap
0.000 setgray
gsave
/o {
gsave
newpath
translate
0.8 setlinewidth
1 setlinejoin
0 setlinecap
5 -0 m
-5 0 l

gsave
0.000 setgray
fill
grestore
stroke
grestore
} bind def
511.597 304.959 o
grestore
gsave
/o {
gsave
newpath
translate
0.8 setlinewidth
1 setlinejoin
0 setlinecap
5 -0 m
-5 0 l

gsave
0.000 setgray
fill
grestore
stroke
grestore
} bind def
678.847 304.959 o
grestore
gsave
472.800000 297.357812 translate
0.000000 rotate
0.000000 0.000000 m /one glyphshow
12.724609 0.000000 m /period glyphshow
19.082031 0.000000 m /zero glyphshow
grestore
2.000 setlinewidth
0 setlinejoin
2 setlinecap
[] 0 setdash
gsave
511.596875 33.559375 m
511.596875 304.959375 l
stroke
grestore
gsave
678.846875 33.559375 m
678.846875 304.959375 l
stroke
grestore
gsave
511.596875 33.559375 m
678.846875 33.559375 l
stroke
grestore
gsave
511.596875 304.959375 m
678.846875 304.959375 l
stroke
grestore
gsave
551.370312 310.959375 translate
0.000000 rotate
0.000000 0.000000 m /Z glyphshow
13.701172 0.000000 m /equal glyphshow
30.458984 0.000000 m /zero glyphshow
43.183594 0.000000 m /period glyphshow
49.541016 0.000000 m /zero glyphshow
62.265625 0.000000 m /zero glyphshow
74.990234 0.000000 m /two glyphshow
grestore
1.000 setlinewidth
0 setlinecap
gsave
525.315625 230.240625 m
668.846875 230.240625 l
668.846875 294.959375 l
525.315625 294.959375 l
cl
gsave
1.000 setgray
fill
grestore
stroke
grestore
gsave
533.315625 271.75625 m
573.315625 271.75625 l
573.315625 285.75625 l
533.315625 285.75625 l
cl
0.122 0.467 0.706 setrgbcolor
fill
grestore
gsave
589.315625 271.756250 translate
0.000000 rotate
0.000000 0.000000 m /n glyphshow
12.675781 0.000000 m /o glyphshow
24.912109 0.000000 m /space glyphshow
31.269531 0.000000 m /d glyphshow
43.964844 0.000000 m /i glyphshow
49.521484 0.000000 m /s glyphshow
59.941406 0.000000 m /k glyphshow
grestore
gsave
533.315625 242.396875 m
573.315625 242.396875 l
573.315625 256.396875 l
533.315625 256.396875 l
cl
1.000 0.498 0.055 setrgbcolor
fill
grestore
gsave
589.315625 242.396875 translate
0.000000 rotate
0.000000 0.000000 m /d glyphshow
12.695312 0.000000 m /i glyphshow
18.251953 0.000000 m /s glyphshow
28.671875 0.000000 m /k glyphshow
grestore
/DejaVuSans findfont
25.000 scalefont
setfont
gsave
45.103125 399.959375 translate
0.000000 rotate
0.000000 0.000000 m /F glyphshow
14.364258 0.000000 m /r glyphshow
24.642578 0.000000 m /a glyphshow
39.962402 0.000000 m /c glyphshow
53.707520 0.000000 m /t glyphshow
63.509766 0.000000 m /i glyphshow
70.455566 0.000000 m /o glyphshow
85.750977 0.000000 m /n glyphshow
101.595703 0.000000 m /space glyphshow
109.542480 0.000000 m /o glyphshow
124.837891 0.000000 m /f glyphshow
133.639160 0.000000 m /space glyphshow
141.585938 0.000000 m /R glyphshow
158.956543 0.000000 m /L glyphshow
172.884766 0.000000 m /O glyphshow
192.562500 0.000000 m /F glyphshow
206.942383 0.000000 m /space glyphshow
214.889160 0.000000 m /t glyphshow
224.691406 0.000000 m /y glyphshow
239.486328 0.000000 m /p glyphshow
255.355469 0.000000 m /e glyphshow
270.736328 0.000000 m /s glyphshow
283.761230 0.000000 m /space glyphshow
291.708008 0.000000 m /f glyphshow
300.509277 0.000000 m /o glyphshow
315.804688 0.000000 m /r glyphshow
326.083008 0.000000 m /space glyphshow
334.029785 0.000000 m /d glyphshow
349.898926 0.000000 m /i glyphshow
356.844727 0.000000 m /f glyphshow
365.645996 0.000000 m /f glyphshow
374.447266 0.000000 m /e glyphshow
389.828125 0.000000 m /r glyphshow
400.106445 0.000000 m /e glyphshow
415.487305 0.000000 m /n glyphshow
431.332031 0.000000 m /t glyphshow
441.134277 0.000000 m /space glyphshow
449.081055 0.000000 m /m glyphshow
473.434082 0.000000 m /e glyphshow
488.814941 0.000000 m /t glyphshow
498.617188 0.000000 m /a glyphshow
513.937012 0.000000 m /l glyphshow
520.882812 0.000000 m /l glyphshow
527.828613 0.000000 m /i glyphshow
534.774414 0.000000 m /c glyphshow
548.519531 0.000000 m /i glyphshow
555.465332 0.000000 m /t glyphshow
565.267578 0.000000 m /i glyphshow
572.213379 0.000000 m /e glyphshow
587.594238 0.000000 m /s glyphshow
grestore

end
showpage
