%!PS-Adobe-3.0 EPSF-3.0
%%Title: plots/spreading_disk.eps
%%Creator: matplotlib version 3.1.1, http://matplotlib.org/
%%CreationDate: Mon Sep 30 21:14:54 2019
%%Orientation: portrait
%%BoundingBox: -198.45937499999997 84.20062500000003 810.4593749999999 707.7993749999999
%%EndComments
%%BeginProlog
/mpldict 9 dict def
mpldict begin
/m { moveto } bind def
/l { lineto } bind def
/r { rlineto } bind def
/c { curveto } bind def
/cl { closepath } bind def
/box {
m
1 index 0 r
0 exch r
neg 0 r
cl
} bind def
/clipbox {
box
clip
newpath
} bind def
%!PS-Adobe-3.0 Resource-Font
%%Title: DejaVu Sans
%%Copyright: Copyright (c) 2003 by Bitstream, Inc. All Rights Reserved. Copyright (c) 2006 by Tavmjong Bah. All Rights Reserved. DejaVu changes are in public domain 
%%Creator: Converted from TrueType to type 3 by PPR
25 dict begin
/_d{bind def}bind def
/_m{moveto}_d
/_l{lineto}_d
/_cl{closepath eofill}_d
/_c{curveto}_d
/_sc{7 -1 roll{setcachedevice}{pop pop pop pop pop pop}ifelse}_d
/_e{exec}_d
/FontName /DejaVuSans def
/PaintType 0 def
/FontMatrix[.001 0 0 .001 0 0]def
/FontBBox[-1021 -463 1793 1232]def
/FontType 3 def
/Encoding [ /space /parenleft /parenright /hyphen /period /zero /one /two /three /four /five /six /seven /eight /equal /C /O /R /S /a /b /c /d /e /f /h /i /k /l /m /n /o /p /r /s /t /u /y /z /minus /uni2299 ] def
/FontInfo 10 dict dup begin
/FamilyName (DejaVu Sans) def
/FullName (DejaVu Sans) def
/Notice (Copyright (c) 2003 by Bitstream, Inc. All Rights Reserved. Copyright (c) 2006 by Tavmjong Bah. All Rights Reserved. DejaVu changes are in public domain ) def
/Weight (Book) def
/Version (Version 2.35) def
/ItalicAngle 0.0 def
/isFixedPitch false def
/UnderlinePosition -130 def
/UnderlineThickness 90 def
end readonly def
/CharStrings 42 dict dup begin
/.notdef 0 def
/space{318 0 0 0 0 0 _sc
}_d
/parenleft{390 0 86 -131 310 759 _sc
310 759 _m
266 683 234 609 213 536 _c
191 463 181 389 181 314 _c
181 238 191 164 213 91 _c
234 17 266 -56 310 -131 _c
232 -131 _l
183 -54 146 20 122 94 _c
98 168 86 241 86 314 _c
86 386 98 459 122 533 _c
146 607 182 682 232 759 _c
310 759 _l
_cl}_d
/parenright{390 0 80 -131 304 759 _sc
80 759 _m
158 759 _l
206 682 243 607 267 533 _c
291 459 304 386 304 314 _c
304 241 291 168 267 94 _c
243 20 206 -54 158 -131 _c
80 -131 _l
123 -56 155 17 177 91 _c
198 164 209 238 209 314 _c
209 389 198 463 177 536 _c
155 609 123 683 80 759 _c
_cl}_d
/hyphen{361 0 49 234 312 314 _sc
49 314 _m
312 314 _l
312 234 _l
49 234 _l
49 314 _l
_cl}_d
/period{318 0 107 0 210 124 _sc
107 124 _m
210 124 _l
210 0 _l
107 0 _l
107 124 _l
_cl}_d
/zero{636 0 66 -13 570 742 _sc
318 664 _m
267 664 229 639 203 589 _c
177 539 165 464 165 364 _c
165 264 177 189 203 139 _c
229 89 267 64 318 64 _c
369 64 407 89 433 139 _c
458 189 471 264 471 364 _c
471 464 458 539 433 589 _c
407 639 369 664 318 664 _c
318 742 _m
399 742 461 709 505 645 _c
548 580 570 486 570 364 _c
570 241 548 147 505 83 _c
461 19 399 -13 318 -13 _c
236 -13 173 19 130 83 _c
87 147 66 241 66 364 _c
66 486 87 580 130 645 _c
173 709 236 742 318 742 _c
_cl}_d
/one{636 0 110 0 544 729 _sc
124 83 _m
285 83 _l
285 639 _l
110 604 _l
110 694 _l
284 729 _l
383 729 _l
383 83 _l
544 83 _l
544 0 _l
124 0 _l
124 83 _l
_cl}_d
/two{{636 0 73 0 536 742 _sc
192 83 _m
536 83 _l
536 0 _l
73 0 _l
73 83 _l
110 121 161 173 226 239 _c
290 304 331 346 348 365 _c
380 400 402 430 414 455 _c
426 479 433 504 433 528 _c
433 566 419 598 392 622 _c
365 646 330 659 286 659 _c
255 659 222 653 188 643 _c
154 632 117 616 78 594 _c
78 694 _l
118 710 155 722 189 730 _c
223 738 255 742 284 742 _c
}_e{359 742 419 723 464 685 _c
509 647 532 597 532 534 _c
532 504 526 475 515 449 _c
504 422 484 390 454 354 _c
446 344 420 317 376 272 _c
332 227 271 164 192 83 _c
_cl}_e}_d
/three{{636 0 76 -13 556 742 _sc
406 393 _m
453 383 490 362 516 330 _c
542 298 556 258 556 212 _c
556 140 531 84 482 45 _c
432 6 362 -13 271 -13 _c
240 -13 208 -10 176 -4 _c
144 1 110 10 76 22 _c
76 117 _l
103 101 133 89 166 81 _c
198 73 232 69 268 69 _c
330 69 377 81 409 105 _c
441 129 458 165 458 212 _c
458 254 443 288 413 312 _c
383 336 341 349 287 349 _c
}_e{202 349 _l
202 430 _l
291 430 _l
339 430 376 439 402 459 _c
428 478 441 506 441 543 _c
441 580 427 609 401 629 _c
374 649 336 659 287 659 _c
260 659 231 656 200 650 _c
169 644 135 635 98 623 _c
98 711 _l
135 721 170 729 203 734 _c
235 739 266 742 296 742 _c
370 742 429 725 473 691 _c
517 657 539 611 539 553 _c
539 513 527 479 504 451 _c
481 423 448 403 406 393 _c
_cl}_e}_d
/four{636 0 49 0 580 729 _sc
378 643 _m
129 254 _l
378 254 _l
378 643 _l
352 729 _m
476 729 _l
476 254 _l
580 254 _l
580 172 _l
476 172 _l
476 0 _l
378 0 _l
378 172 _l
49 172 _l
49 267 _l
352 729 _l
_cl}_d
/five{{636 0 77 -13 549 729 _sc
108 729 _m
495 729 _l
495 646 _l
198 646 _l
198 467 _l
212 472 227 476 241 478 _c
255 480 270 482 284 482 _c
365 482 429 459 477 415 _c
525 370 549 310 549 234 _c
549 155 524 94 475 51 _c
426 8 357 -13 269 -13 _c
238 -13 207 -10 175 -6 _c
143 -1 111 6 77 17 _c
77 116 _l
106 100 136 88 168 80 _c
199 72 232 69 267 69 _c
}_e{323 69 368 83 401 113 _c
433 143 450 183 450 234 _c
450 284 433 324 401 354 _c
368 384 323 399 267 399 _c
241 399 214 396 188 390 _c
162 384 135 375 108 363 _c
108 729 _l
_cl}_e}_d
/six{{636 0 70 -13 573 742 _sc
330 404 _m
286 404 251 388 225 358 _c
199 328 186 286 186 234 _c
186 181 199 139 225 109 _c
251 79 286 64 330 64 _c
374 64 409 79 435 109 _c
461 139 474 181 474 234 _c
474 286 461 328 435 358 _c
409 388 374 404 330 404 _c
526 713 _m
526 623 _l
501 635 476 644 451 650 _c
425 656 400 659 376 659 _c
310 659 260 637 226 593 _c
}_e{192 549 172 482 168 394 _c
187 422 211 444 240 459 _c
269 474 301 482 336 482 _c
409 482 467 459 509 415 _c
551 371 573 310 573 234 _c
573 159 550 99 506 54 _c
462 9 403 -13 330 -13 _c
246 -13 181 19 137 83 _c
92 147 70 241 70 364 _c
70 479 97 571 152 639 _c
206 707 280 742 372 742 _c
396 742 421 739 447 735 _c
472 730 498 723 526 713 _c
_cl}_e}_d
/seven{636 0 82 0 551 729 _sc
82 729 _m
551 729 _l
551 687 _l
286 0 _l
183 0 _l
432 646 _l
82 646 _l
82 729 _l
_cl}_d
/eight{{636 0 68 -13 568 742 _sc
318 346 _m
271 346 234 333 207 308 _c
180 283 167 249 167 205 _c
167 161 180 126 207 101 _c
234 76 271 64 318 64 _c
364 64 401 76 428 102 _c
455 127 469 161 469 205 _c
469 249 455 283 429 308 _c
402 333 365 346 318 346 _c
219 388 _m
177 398 144 418 120 447 _c
96 476 85 511 85 553 _c
85 611 105 657 147 691 _c
188 725 245 742 318 742 _c
}_e{390 742 447 725 489 691 _c
530 657 551 611 551 553 _c
551 511 539 476 515 447 _c
491 418 459 398 417 388 _c
464 377 501 355 528 323 _c
554 291 568 251 568 205 _c
568 134 546 80 503 43 _c
459 5 398 -13 318 -13 _c
237 -13 175 5 132 43 _c
89 80 68 134 68 205 _c
68 251 81 291 108 323 _c
134 355 171 377 219 388 _c
183 544 _m
183 506 194 476 218 455 _c
}_e{242 434 275 424 318 424 _c
360 424 393 434 417 455 _c
441 476 453 506 453 544 _c
453 582 441 611 417 632 _c
393 653 360 664 318 664 _c
275 664 242 653 218 632 _c
194 611 183 582 183 544 _c
_cl}_e}_d
/equal{838 0 106 172 732 454 _sc
106 454 _m
732 454 _l
732 372 _l
106 372 _l
106 454 _l
106 255 _m
732 255 _l
732 172 _l
106 172 _l
106 255 _l
_cl}_d
/C{{698 0 56 -13 644 742 _sc
644 673 _m
644 569 _l
610 599 575 622 537 638 _c
499 653 460 661 418 661 _c
334 661 270 635 226 584 _c
182 533 160 460 160 364 _c
160 268 182 194 226 143 _c
270 92 334 67 418 67 _c
460 67 499 74 537 90 _c
575 105 610 128 644 159 _c
644 56 _l
609 32 572 15 534 4 _c
496 -7 455 -13 412 -13 _c
302 -13 215 20 151 87 _c
}_e{87 154 56 246 56 364 _c
56 481 87 573 151 641 _c
215 708 302 742 412 742 _c
456 742 497 736 535 725 _c
573 713 610 696 644 673 _c
_cl}_e}_d
/O{787 0 56 -13 731 742 _sc
394 662 _m
322 662 265 635 223 582 _c
181 528 160 456 160 364 _c
160 272 181 199 223 146 _c
265 92 322 66 394 66 _c
465 66 522 92 564 146 _c
606 199 627 272 627 364 _c
627 456 606 528 564 582 _c
522 635 465 662 394 662 _c
394 742 _m
496 742 577 707 639 639 _c
700 571 731 479 731 364 _c
731 248 700 157 639 89 _c
577 21 496 -13 394 -13 _c
291 -13 209 21 148 89 _c
86 157 56 248 56 364 _c
56 479 86 571 148 639 _c
209 707 291 742 394 742 _c
_cl}_d
/R{{695 0 98 0 666 729 _sc
444 342 _m
465 334 486 319 506 296 _c
526 272 546 240 566 199 _c
666 0 _l
560 0 _l
467 187 _l
443 235 419 268 397 284 _c
374 300 343 308 304 308 _c
197 308 _l
197 0 _l
98 0 _l
98 729 _l
321 729 _l
404 729 466 711 507 677 _c
548 642 569 589 569 519 _c
569 473 558 434 537 404 _c
515 374 484 353 444 342 _c
197 648 _m
197 389 _l
321 389 _l
}_e{368 389 404 400 428 422 _c
452 444 465 476 465 519 _c
465 561 452 593 428 615 _c
404 637 368 648 321 648 _c
197 648 _l
_cl}_e}_d
/S{{635 0 66 -13 579 742 _sc
535 705 _m
535 609 _l
497 627 462 640 429 649 _c
395 657 363 662 333 662 _c
279 662 237 651 208 631 _c
179 610 165 580 165 542 _c
165 510 174 485 194 469 _c
213 452 250 439 304 429 _c
364 417 _l
437 403 491 378 526 343 _c
561 307 579 260 579 201 _c
579 130 555 77 508 41 _c
460 5 391 -13 300 -13 _c
265 -13 228 -9 189 -2 _c
}_e{150 5 110 16 69 32 _c
69 134 _l
109 111 148 94 186 83 _c
224 71 262 66 300 66 _c
356 66 399 77 430 99 _c
460 121 476 152 476 194 _c
476 230 465 258 443 278 _c
421 298 385 313 335 323 _c
275 335 _l
201 349 148 372 115 404 _c
82 435 66 478 66 534 _c
66 598 88 649 134 686 _c
179 723 242 742 322 742 _c
356 742 390 739 426 733 _c
461 727 497 717 535 705 _c
}_e{_cl}_e}_d
/a{{613 0 60 -13 522 560 _sc
343 275 _m
270 275 220 266 192 250 _c
164 233 150 205 150 165 _c
150 133 160 107 181 89 _c
202 70 231 61 267 61 _c
317 61 357 78 387 114 _c
417 149 432 196 432 255 _c
432 275 _l
343 275 _l
522 312 _m
522 0 _l
432 0 _l
432 83 _l
411 49 385 25 355 10 _c
325 -5 287 -13 243 -13 _c
187 -13 142 2 109 33 _c
76 64 60 106 60 159 _c
}_e{60 220 80 266 122 298 _c
163 329 224 345 306 345 _c
432 345 _l
432 354 _l
432 395 418 427 391 450 _c
364 472 326 484 277 484 _c
245 484 215 480 185 472 _c
155 464 127 453 100 439 _c
100 522 _l
132 534 164 544 195 550 _c
226 556 256 560 286 560 _c
365 560 424 539 463 498 _c
502 457 522 395 522 312 _c
_cl}_e}_d
/b{{635 0 91 -13 580 760 _sc
487 273 _m
487 339 473 390 446 428 _c
418 466 381 485 334 485 _c
286 485 249 466 222 428 _c
194 390 181 339 181 273 _c
181 207 194 155 222 117 _c
249 79 286 61 334 61 _c
381 61 418 79 446 117 _c
473 155 487 207 487 273 _c
181 464 _m
199 496 223 520 252 536 _c
281 552 316 560 356 560 _c
422 560 476 533 518 481 _c
559 428 580 359 580 273 _c
}_e{580 187 559 117 518 65 _c
476 13 422 -13 356 -13 _c
316 -13 281 -5 252 10 _c
223 25 199 49 181 82 _c
181 0 _l
91 0 _l
91 760 _l
181 760 _l
181 464 _l
_cl}_e}_d
/c{{550 0 55 -13 488 560 _sc
488 526 _m
488 442 _l
462 456 437 466 411 473 _c
385 480 360 484 334 484 _c
276 484 230 465 198 428 _c
166 391 150 339 150 273 _c
150 206 166 154 198 117 _c
230 80 276 62 334 62 _c
360 62 385 65 411 72 _c
437 79 462 90 488 104 _c
488 21 _l
462 9 436 0 410 -5 _c
383 -10 354 -13 324 -13 _c
242 -13 176 12 128 64 _c
}_e{79 115 55 185 55 273 _c
55 362 79 432 128 483 _c
177 534 244 560 330 560 _c
358 560 385 557 411 551 _c
437 545 463 537 488 526 _c
_cl}_e}_d
/d{{635 0 55 -13 544 760 _sc
454 464 _m
454 760 _l
544 760 _l
544 0 _l
454 0 _l
454 82 _l
435 49 411 25 382 10 _c
353 -5 319 -13 279 -13 _c
213 -13 159 13 117 65 _c
75 117 55 187 55 273 _c
55 359 75 428 117 481 _c
159 533 213 560 279 560 _c
319 560 353 552 382 536 _c
411 520 435 496 454 464 _c
148 273 _m
148 207 161 155 188 117 _c
215 79 253 61 301 61 _c
}_e{348 61 385 79 413 117 _c
440 155 454 207 454 273 _c
454 339 440 390 413 428 _c
385 466 348 485 301 485 _c
253 485 215 466 188 428 _c
161 390 148 339 148 273 _c
_cl}_e}_d
/e{{615 0 55 -13 562 560 _sc
562 296 _m
562 252 _l
149 252 _l
153 190 171 142 205 110 _c
238 78 284 62 344 62 _c
378 62 412 66 444 74 _c
476 82 509 95 541 113 _c
541 28 _l
509 14 476 3 442 -3 _c
408 -9 373 -13 339 -13 _c
251 -13 182 12 131 62 _c
80 112 55 181 55 268 _c
55 357 79 428 127 481 _c
175 533 241 560 323 560 _c
397 560 455 536 498 489 _c
}_e{540 441 562 377 562 296 _c
472 322 _m
471 371 457 410 431 440 _c
404 469 368 484 324 484 _c
274 484 234 469 204 441 _c
174 413 156 373 152 322 _c
472 322 _l
_cl}_e}_d
/f{352 0 23 0 371 760 _sc
371 760 _m
371 685 _l
285 685 _l
253 685 230 678 218 665 _c
205 652 199 629 199 595 _c
199 547 _l
347 547 _l
347 477 _l
199 477 _l
199 0 _l
109 0 _l
109 477 _l
23 477 _l
23 547 _l
109 547 _l
109 585 _l
109 645 123 690 151 718 _c
179 746 224 760 286 760 _c
371 760 _l
_cl}_d
/h{634 0 91 0 549 760 _sc
549 330 _m
549 0 _l
459 0 _l
459 327 _l
459 379 448 417 428 443 _c
408 469 378 482 338 482 _c
289 482 251 466 223 435 _c
195 404 181 362 181 309 _c
181 0 _l
91 0 _l
91 760 _l
181 760 _l
181 462 _l
202 494 227 519 257 535 _c
286 551 320 560 358 560 _c
420 560 468 540 500 501 _c
532 462 549 405 549 330 _c
_cl}_d
/i{278 0 94 0 184 760 _sc
94 547 _m
184 547 _l
184 0 _l
94 0 _l
94 547 _l
94 760 _m
184 760 _l
184 646 _l
94 646 _l
94 760 _l
_cl}_d
/k{579 0 91 0 576 760 _sc
91 760 _m
181 760 _l
181 311 _l
449 547 _l
564 547 _l
274 291 _l
576 0 _l
459 0 _l
181 267 _l
181 0 _l
91 0 _l
91 760 _l
_cl}_d
/l{278 0 94 0 184 760 _sc
94 760 _m
184 760 _l
184 0 _l
94 0 _l
94 760 _l
_cl}_d
/m{{974 0 91 0 889 560 _sc
520 442 _m
542 482 569 511 600 531 _c
631 550 668 560 711 560 _c
767 560 811 540 842 500 _c
873 460 889 403 889 330 _c
889 0 _l
799 0 _l
799 327 _l
799 379 789 418 771 444 _c
752 469 724 482 686 482 _c
639 482 602 466 575 435 _c
548 404 535 362 535 309 _c
535 0 _l
445 0 _l
445 327 _l
445 379 435 418 417 444 _c
398 469 369 482 331 482 _c
}_e{285 482 248 466 221 435 _c
194 404 181 362 181 309 _c
181 0 _l
91 0 _l
91 547 _l
181 547 _l
181 462 _l
201 495 226 520 255 536 _c
283 552 317 560 357 560 _c
397 560 430 550 458 530 _c
486 510 506 480 520 442 _c
_cl}_e}_d
/n{634 0 91 0 549 560 _sc
549 330 _m
549 0 _l
459 0 _l
459 327 _l
459 379 448 417 428 443 _c
408 469 378 482 338 482 _c
289 482 251 466 223 435 _c
195 404 181 362 181 309 _c
181 0 _l
91 0 _l
91 547 _l
181 547 _l
181 462 _l
202 494 227 519 257 535 _c
286 551 320 560 358 560 _c
420 560 468 540 500 501 _c
532 462 549 405 549 330 _c
_cl}_d
/o{612 0 55 -13 557 560 _sc
306 484 _m
258 484 220 465 192 427 _c
164 389 150 338 150 273 _c
150 207 163 156 191 118 _c
219 80 257 62 306 62 _c
354 62 392 80 420 118 _c
448 156 462 207 462 273 _c
462 337 448 389 420 427 _c
392 465 354 484 306 484 _c
306 560 _m
384 560 445 534 490 484 _c
534 433 557 363 557 273 _c
557 183 534 113 490 63 _c
445 12 384 -13 306 -13 _c
227 -13 165 12 121 63 _c
77 113 55 183 55 273 _c
55 363 77 433 121 484 _c
165 534 227 560 306 560 _c
_cl}_d
/p{{635 0 91 -207 580 560 _sc
181 82 _m
181 -207 _l
91 -207 _l
91 547 _l
181 547 _l
181 464 _l
199 496 223 520 252 536 _c
281 552 316 560 356 560 _c
422 560 476 533 518 481 _c
559 428 580 359 580 273 _c
580 187 559 117 518 65 _c
476 13 422 -13 356 -13 _c
316 -13 281 -5 252 10 _c
223 25 199 49 181 82 _c
487 273 _m
487 339 473 390 446 428 _c
418 466 381 485 334 485 _c
}_e{286 485 249 466 222 428 _c
194 390 181 339 181 273 _c
181 207 194 155 222 117 _c
249 79 286 61 334 61 _c
381 61 418 79 446 117 _c
473 155 487 207 487 273 _c
_cl}_e}_d
/r{411 0 91 0 411 560 _sc
411 463 _m
401 469 390 473 378 476 _c
366 478 353 480 339 480 _c
288 480 249 463 222 430 _c
194 397 181 350 181 288 _c
181 0 _l
91 0 _l
91 547 _l
181 547 _l
181 462 _l
199 495 224 520 254 536 _c
284 552 321 560 365 560 _c
371 560 378 559 386 559 _c
393 558 401 557 411 555 _c
411 463 _l
_cl}_d
/s{{521 0 54 -13 472 560 _sc
443 531 _m
443 446 _l
417 458 391 468 364 475 _c
336 481 308 485 279 485 _c
234 485 200 478 178 464 _c
156 450 145 430 145 403 _c
145 382 153 366 169 354 _c
185 342 217 330 265 320 _c
296 313 _l
360 299 405 279 432 255 _c
458 230 472 195 472 151 _c
472 100 452 60 412 31 _c
372 1 316 -13 246 -13 _c
216 -13 186 -10 154 -5 _c
}_e{122 0 89 8 54 20 _c
54 113 _l
87 95 120 82 152 74 _c
184 65 216 61 248 61 _c
290 61 323 68 346 82 _c
368 96 380 117 380 144 _c
380 168 371 187 355 200 _c
339 213 303 226 247 238 _c
216 245 _l
160 257 119 275 95 299 _c
70 323 58 356 58 399 _c
58 450 76 490 112 518 _c
148 546 200 560 268 560 _c
301 560 332 557 362 552 _c
391 547 418 540 443 531 _c
}_e{_cl}_e}_d
/t{392 0 27 0 368 702 _sc
183 702 _m
183 547 _l
368 547 _l
368 477 _l
183 477 _l
183 180 _l
183 135 189 106 201 94 _c
213 81 238 75 276 75 _c
368 75 _l
368 0 _l
276 0 _l
206 0 158 13 132 39 _c
106 65 93 112 93 180 _c
93 477 _l
27 477 _l
27 547 _l
93 547 _l
93 702 _l
183 702 _l
_cl}_d
/u{634 0 85 -13 543 560 _sc
85 216 _m
85 547 _l
175 547 _l
175 219 _l
175 167 185 129 205 103 _c
225 77 255 64 296 64 _c
344 64 383 79 411 110 _c
439 141 453 183 453 237 _c
453 547 _l
543 547 _l
543 0 _l
453 0 _l
453 84 _l
431 50 405 26 377 10 _c
348 -5 315 -13 277 -13 _c
214 -13 166 6 134 45 _c
101 83 85 140 85 216 _c
311 560 _m
311 560 _l
_cl}_d
/y{592 0 30 -207 562 547 _sc
322 -50 _m
296 -114 271 -157 247 -177 _c
223 -197 191 -207 151 -207 _c
79 -207 _l
79 -132 _l
132 -132 _l
156 -132 175 -126 189 -114 _c
203 -102 218 -75 235 -31 _c
251 9 _l
30 547 _l
125 547 _l
296 119 _l
467 547 _l
562 547 _l
322 -50 _l
_cl}_d
/z{525 0 43 0 482 547 _sc
55 547 _m
482 547 _l
482 465 _l
144 72 _l
482 72 _l
482 0 _l
43 0 _l
43 82 _l
381 475 _l
55 475 _l
55 547 _l
_cl}_d
/minus{838 0 106 272 732 355 _sc
106 355 _m
732 355 _l
732 272 _l
106 272 _l
106 355 _l
_cl}_d
/uni2299{{838 0 91 -13 747 643 _sc
367 375 _m
471 375 _l
471 251 _l
367 251 _l
367 375 _l
517 550 _m
486 562 453 569 419 569 _c
384 569 351 562 321 550 _c
291 537 263 518 239 494 _c
214 469 195 442 183 412 _c
171 382 165 349 165 313 _c
165 279 171 247 183 217 _c
195 187 214 159 239 134 _c
263 109 291 90 321 78 _c
351 65 384 59 419 59 _c
453 59 486 65 517 78 _c
}_e{547 90 574 109 599 134 _c
623 159 642 187 654 217 _c
666 247 673 279 673 313 _c
673 349 666 382 654 412 _c
642 442 623 469 599 494 _c
574 518 547 537 517 550 _c
293 618 _m
332 634 374 643 419 643 _c
463 643 505 634 544 618 _c
583 602 618 578 650 546 _c
682 514 707 478 723 439 _c
739 401 747 359 747 313 _c
747 269 739 227 723 188 _c
707 150 682 115 650 83 _c
}_e{618 51 583 27 544 11 _c
505 -5 463 -13 419 -13 _c
374 -13 332 -5 293 11 _c
254 27 219 51 188 83 _c
155 115 131 150 115 188 _c
99 227 91 269 91 313 _c
91 359 99 401 115 439 _c
131 478 155 514 188 546 _c
219 578 254 602 293 618 _c
_cl}_e}_d
end readonly def

/BuildGlyph
 {exch begin
 CharStrings exch
 2 copy known not{pop /.notdef}if
 true 3 1 roll get exec
 end}_d

/BuildChar {
 1 index /Encoding get exch get
 1 index /BuildGlyph get exec
}_d

FontName currentdict end definefont pop
%!PS-Adobe-3.0 Resource-Font
%%Title: DejaVu Sans Oblique
%%Copyright: Copyright (c) 2003 by Bitstream, Inc. All Rights Reserved. Copyright (c) 2006 by Tavmjong Bah. All Rights Reserved. DejaVu changes are in public domain 
%%Creator: Converted from TrueType to type 3 by PPR
25 dict begin
/_d{bind def}bind def
/_m{moveto}_d
/_l{lineto}_d
/_cl{closepath eofill}_d
/_c{curveto}_d
/_sc{7 -1 roll{setcachedevice}{pop pop pop pop pop pop}ifelse}_d
/_e{exec}_d
/FontName /DejaVuSans-Oblique def
/PaintType 0 def
/FontMatrix[.001 0 0 .001 0 0]def
/FontBBox[-1016 -350 1659 1068]def
/FontType 3 def
/Encoding [ /R /tau ] def
/FontInfo 10 dict dup begin
/FamilyName (DejaVu Sans) def
/FullName (DejaVu Sans Oblique) def
/Notice (Copyright (c) 2003 by Bitstream, Inc. All Rights Reserved. Copyright (c) 2006 by Tavmjong Bah. All Rights Reserved. DejaVu changes are in public domain ) def
/Weight (Oblique) def
/Version (Version 2.35) def
/ItalicAngle -11.0 def
/isFixedPitch false def
/UnderlinePosition -130 def
/UnderlineThickness 90 def
end readonly def
/CharStrings 3 dict dup begin
/.notdef 0 def
/R{{695 0 27 0 600 729 _sc
252 648 _m
202 389 _l
329 389 _l
379 389 419 402 450 430 _c
480 458 496 494 496 538 _c
496 573 485 600 465 619 _c
444 638 414 648 376 648 _c
252 648 _l
433 350 _m
453 345 471 333 485 314 _c
499 294 515 256 533 199 _c
595 0 _l
491 0 _l
434 187 _l
419 235 402 267 383 283 _c
363 299 334 308 295 308 _c
186 308 _l
126 0 _l
27 0 _l
169 729 _l
}_e{391 729 _l
458 729 510 713 546 683 _c
582 653 600 609 600 552 _c
600 501 584 457 554 420 _c
523 382 483 359 433 350 _c
_cl}_e}_d
/tau{602 0 84 0 606 547 _sc
329 100 _m
337 84 359 76 395 76 _c
438 76 _l
423 0 _l
369 0 _l
310 0 270 15 250 47 _c
229 79 226 129 240 198 _c
290 457 _l
84 457 _l
102 547 _l
606 547 _l
589 457 _l
382 457 _l
330 193 _l
320 145 320 114 329 100 _c
_cl}_d
end readonly def

/BuildGlyph
 {exch begin
 CharStrings exch
 2 copy known not{pop /.notdef}if
 true 3 1 roll get exec
 end}_d

/BuildChar {
 1 index /Encoding get exch get
 1 index /BuildGlyph get exec
}_d

FontName currentdict end definefont pop
end
%%EndProlog
mpldict begin
-198.459 84.201 translate
1008.919 623.599 0 0 clipbox
gsave
0 0 m
1008.91875 0 l
1008.91875 623.59875 l
0 623.59875 l
cl
1.000 setgray
fill
grestore
gsave
103.91875 77.559375 m
996.71875 77.559375 l
996.71875 576.519375 l
103.91875 576.519375 l
cl
1.000 setgray
fill
grestore
0.800 setlinewidth
1 setlinejoin
2 setlinecap
[] 0 setdash
0.690 setgray
gsave
892.8 499 103.9 77.56 clipbox
108.53729 77.559375 m
108.53729 576.519375 l
stroke
grestore
0 setlinecap
0.000 setgray
gsave
/o {
gsave
newpath
translate
0.8 setlinewidth
1 setlinejoin
0 setlinecap
0 -5 m
0 5 l

gsave
0.000 setgray
fill
grestore
stroke
grestore
} bind def
108.537 77.5594 o
grestore
gsave
/o {
gsave
newpath
translate
0.8 setlinewidth
1 setlinejoin
0 setlinecap
0 -5 m
0 5 l

gsave
0.000 setgray
fill
grestore
stroke
grestore
} bind def
108.537 576.519 o
grestore
/DejaVuSans findfont
20.000 scalefont
setfont
gsave
102.177915 55.356250 translate
0.000000 rotate
0.000000 0.000000 m /zero glyphshow
grestore
2 setlinecap
0.690 setgray
gsave
892.8 499 103.9 77.56 clipbox
221.9496 77.559375 m
221.9496 576.519375 l
stroke
grestore
0 setlinecap
0.000 setgray
gsave
/o {
gsave
newpath
translate
0.8 setlinewidth
1 setlinejoin
0 setlinecap
0 -5 m
0 5 l

gsave
0.000 setgray
fill
grestore
stroke
grestore
} bind def
221.95 77.5594 o
grestore
gsave
/o {
gsave
newpath
translate
0.8 setlinewidth
1 setlinejoin
0 setlinecap
0 -5 m
0 5 l

gsave
0.000 setgray
fill
grestore
stroke
grestore
} bind def
221.95 576.519 o
grestore
gsave
209.230850 55.356250 translate
0.000000 rotate
0.000000 0.000000 m /one glyphshow
12.724609 0.000000 m /zero glyphshow
grestore
2 setlinecap
0.690 setgray
gsave
892.8 499 103.9 77.56 clipbox
335.361911 77.559375 m
335.361911 576.519375 l
stroke
grestore
0 setlinecap
0.000 setgray
gsave
/o {
gsave
newpath
translate
0.8 setlinewidth
1 setlinejoin
0 setlinecap
0 -5 m
0 5 l

gsave
0.000 setgray
fill
grestore
stroke
grestore
} bind def
335.362 77.5594 o
grestore
gsave
/o {
gsave
newpath
translate
0.8 setlinewidth
1 setlinejoin
0 setlinecap
0 -5 m
0 5 l

gsave
0.000 setgray
fill
grestore
stroke
grestore
} bind def
335.362 576.519 o
grestore
gsave
322.643161 55.356250 translate
0.000000 rotate
0.000000 0.000000 m /two glyphshow
12.724609 0.000000 m /zero glyphshow
grestore
2 setlinecap
0.690 setgray
gsave
892.8 499 103.9 77.56 clipbox
448.774222 77.559375 m
448.774222 576.519375 l
stroke
grestore
0 setlinecap
0.000 setgray
gsave
/o {
gsave
newpath
translate
0.8 setlinewidth
1 setlinejoin
0 setlinecap
0 -5 m
0 5 l

gsave
0.000 setgray
fill
grestore
stroke
grestore
} bind def
448.774 77.5594 o
grestore
gsave
/o {
gsave
newpath
translate
0.8 setlinewidth
1 setlinejoin
0 setlinecap
0 -5 m
0 5 l

gsave
0.000 setgray
fill
grestore
stroke
grestore
} bind def
448.774 576.519 o
grestore
gsave
436.055472 55.356250 translate
0.000000 rotate
0.000000 0.000000 m /three glyphshow
12.724609 0.000000 m /zero glyphshow
grestore
2 setlinecap
0.690 setgray
gsave
892.8 499 103.9 77.56 clipbox
562.186532 77.559375 m
562.186532 576.519375 l
stroke
grestore
0 setlinecap
0.000 setgray
gsave
/o {
gsave
newpath
translate
0.8 setlinewidth
1 setlinejoin
0 setlinecap
0 -5 m
0 5 l

gsave
0.000 setgray
fill
grestore
stroke
grestore
} bind def
562.187 77.5594 o
grestore
gsave
/o {
gsave
newpath
translate
0.8 setlinewidth
1 setlinejoin
0 setlinecap
0 -5 m
0 5 l

gsave
0.000 setgray
fill
grestore
stroke
grestore
} bind def
562.187 576.519 o
grestore
gsave
549.467782 55.356250 translate
0.000000 rotate
0.000000 0.000000 m /four glyphshow
12.724609 0.000000 m /zero glyphshow
grestore
2 setlinecap
0.690 setgray
gsave
892.8 499 103.9 77.56 clipbox
675.598843 77.559375 m
675.598843 576.519375 l
stroke
grestore
0 setlinecap
0.000 setgray
gsave
/o {
gsave
newpath
translate
0.8 setlinewidth
1 setlinejoin
0 setlinecap
0 -5 m
0 5 l

gsave
0.000 setgray
fill
grestore
stroke
grestore
} bind def
675.599 77.5594 o
grestore
gsave
/o {
gsave
newpath
translate
0.8 setlinewidth
1 setlinejoin
0 setlinecap
0 -5 m
0 5 l

gsave
0.000 setgray
fill
grestore
stroke
grestore
} bind def
675.599 576.519 o
grestore
gsave
662.880093 55.356250 translate
0.000000 rotate
0.000000 0.000000 m /five glyphshow
12.724609 0.000000 m /zero glyphshow
grestore
2 setlinecap
0.690 setgray
gsave
892.8 499 103.9 77.56 clipbox
789.011154 77.559375 m
789.011154 576.519375 l
stroke
grestore
0 setlinecap
0.000 setgray
gsave
/o {
gsave
newpath
translate
0.8 setlinewidth
1 setlinejoin
0 setlinecap
0 -5 m
0 5 l

gsave
0.000 setgray
fill
grestore
stroke
grestore
} bind def
789.011 77.5594 o
grestore
gsave
/o {
gsave
newpath
translate
0.8 setlinewidth
1 setlinejoin
0 setlinecap
0 -5 m
0 5 l

gsave
0.000 setgray
fill
grestore
stroke
grestore
} bind def
789.011 576.519 o
grestore
gsave
776.292404 55.356250 translate
0.000000 rotate
0.000000 0.000000 m /six glyphshow
12.724609 0.000000 m /zero glyphshow
grestore
2 setlinecap
0.690 setgray
gsave
892.8 499 103.9 77.56 clipbox
902.423464 77.559375 m
902.423464 576.519375 l
stroke
grestore
0 setlinecap
0.000 setgray
gsave
/o {
gsave
newpath
translate
0.8 setlinewidth
1 setlinejoin
0 setlinecap
0 -5 m
0 5 l

gsave
0.000 setgray
fill
grestore
stroke
grestore
} bind def
902.423 77.5594 o
grestore
gsave
/o {
gsave
newpath
translate
0.8 setlinewidth
1 setlinejoin
0 setlinecap
0 -5 m
0 5 l

gsave
0.000 setgray
fill
grestore
stroke
grestore
} bind def
902.423 576.519 o
grestore
gsave
889.704714 55.356250 translate
0.000000 rotate
0.000000 0.000000 m /seven glyphshow
12.724609 0.000000 m /zero glyphshow
grestore
gsave
393.318750 16.200000 translate
0.000000 rotate
/DejaVuSans findfont
40.0 scalefont
setfont
0.000000 0.609375 moveto
/S glyphshow

25.390625 0.609375 moveto
/e glyphshow

50.000000 0.609375 moveto
/p glyphshow

75.390625 0.609375 moveto
/a glyphshow

99.902344 0.609375 moveto
/r glyphshow

116.347656 0.609375 moveto
/a glyphshow

140.859375 0.609375 moveto
/t glyphshow

156.542969 0.609375 moveto
/i glyphshow

167.656250 0.609375 moveto
/o glyphshow

192.128906 0.609375 moveto
/n glyphshow

217.480469 0.609375 moveto
/space glyphshow

230.195312 0.609375 moveto
/parenleft glyphshow

/DejaVuSans-Oblique findfont
40.0 scalefont
setfont
245.800781 0.609375 moveto
/R glyphshow

/DejaVuSans findfont
28.0 scalefont
setfont
273.593750 -5.953125 moveto
/uni2299 glyphshow

/DejaVuSans findfont
40.0 scalefont
setfont
298.148438 0.609375 moveto
/parenright glyphshow


grestore
2 setlinecap
0.690 setgray
gsave
892.8 499 103.9 77.56 clipbox
103.91875 162.702112 m
996.71875 162.702112 l
stroke
grestore
0 setlinecap
0.000 setgray
gsave
/o {
gsave
newpath
translate
0.8 setlinewidth
1 setlinejoin
0 setlinecap
5 -0 m
-5 0 l

gsave
0.000 setgray
fill
grestore
stroke
grestore
} bind def
103.919 162.702 o
grestore
gsave
/o {
gsave
newpath
translate
0.8 setlinewidth
1 setlinejoin
0 setlinecap
5 -0 m
-5 0 l

gsave
0.000 setgray
fill
grestore
stroke
grestore
} bind def
996.719 162.702 o
grestore
gsave
49.918750 154.780237 translate
0.000000 rotate
/DejaVuSans findfont
20.0 scalefont
setfont
0.000000 0.953125 moveto
/one glyphshow

12.724609 0.953125 moveto
/zero glyphshow

/DejaVuSans findfont
14.0 scalefont
setfont
25.640625 8.609375 moveto
/minus glyphshow

37.371094 8.609375 moveto
/six glyphshow


grestore
2 setlinecap
0.690 setgray
gsave
892.8 499 103.9 77.56 clipbox
103.91875 253.422112 m
996.71875 253.422112 l
stroke
grestore
0 setlinecap
0.000 setgray
gsave
/o {
gsave
newpath
translate
0.8 setlinewidth
1 setlinejoin
0 setlinecap
5 -0 m
-5 0 l

gsave
0.000 setgray
fill
grestore
stroke
grestore
} bind def
103.919 253.422 o
grestore
gsave
/o {
gsave
newpath
translate
0.8 setlinewidth
1 setlinejoin
0 setlinecap
5 -0 m
-5 0 l

gsave
0.000 setgray
fill
grestore
stroke
grestore
} bind def
996.719 253.422 o
grestore
gsave
49.918750 245.820550 translate
0.000000 rotate
/DejaVuSans findfont
20.0 scalefont
setfont
0.000000 0.139063 moveto
/one glyphshow

12.724609 0.139063 moveto
/zero glyphshow

/DejaVuSans findfont
14.0 scalefont
setfont
25.640625 7.795313 moveto
/minus glyphshow

37.371094 7.795313 moveto
/four glyphshow


grestore
2 setlinecap
0.690 setgray
gsave
892.8 499 103.9 77.56 clipbox
103.91875 344.142112 m
996.71875 344.142112 l
stroke
grestore
0 setlinecap
0.000 setgray
gsave
/o {
gsave
newpath
translate
0.8 setlinewidth
1 setlinejoin
0 setlinecap
5 -0 m
-5 0 l

gsave
0.000 setgray
fill
grestore
stroke
grestore
} bind def
103.919 344.142 o
grestore
gsave
/o {
gsave
newpath
translate
0.8 setlinewidth
1 setlinejoin
0 setlinecap
5 -0 m
-5 0 l

gsave
0.000 setgray
fill
grestore
stroke
grestore
} bind def
996.719 344.142 o
grestore
gsave
49.918750 336.220237 translate
0.000000 rotate
/DejaVuSans findfont
20.0 scalefont
setfont
0.000000 0.953125 moveto
/one glyphshow

12.724609 0.953125 moveto
/zero glyphshow

/DejaVuSans findfont
14.0 scalefont
setfont
25.640625 8.609375 moveto
/minus glyphshow

37.371094 8.609375 moveto
/two glyphshow


grestore
2 setlinecap
0.690 setgray
gsave
892.8 499 103.9 77.56 clipbox
103.91875 434.862112 m
996.71875 434.862112 l
stroke
grestore
0 setlinecap
0.000 setgray
gsave
/o {
gsave
newpath
translate
0.8 setlinewidth
1 setlinejoin
0 setlinecap
5 -0 m
-5 0 l

gsave
0.000 setgray
fill
grestore
stroke
grestore
} bind def
103.919 434.862 o
grestore
gsave
/o {
gsave
newpath
translate
0.8 setlinewidth
1 setlinejoin
0 setlinecap
5 -0 m
-5 0 l

gsave
0.000 setgray
fill
grestore
stroke
grestore
} bind def
996.719 434.862 o
grestore
gsave
60.918750 426.940237 translate
0.000000 rotate
/DejaVuSans findfont
20.0 scalefont
setfont
0.000000 0.953125 moveto
/one glyphshow

12.724609 0.953125 moveto
/zero glyphshow

/DejaVuSans findfont
14.0 scalefont
setfont
25.640625 8.609375 moveto
/zero glyphshow


grestore
2 setlinecap
0.690 setgray
gsave
892.8 499 103.9 77.56 clipbox
103.91875 525.582112 m
996.71875 525.582112 l
stroke
grestore
0 setlinecap
0.000 setgray
gsave
/o {
gsave
newpath
translate
0.8 setlinewidth
1 setlinejoin
0 setlinecap
5 -0 m
-5 0 l

gsave
0.000 setgray
fill
grestore
stroke
grestore
} bind def
103.919 525.582 o
grestore
gsave
/o {
gsave
newpath
translate
0.8 setlinewidth
1 setlinejoin
0 setlinecap
5 -0 m
-5 0 l

gsave
0.000 setgray
fill
grestore
stroke
grestore
} bind def
996.719 525.582 o
grestore
gsave
60.918750 517.660237 translate
0.000000 rotate
/DejaVuSans findfont
20.0 scalefont
setfont
0.000000 0.953125 moveto
/one glyphshow

12.724609 0.953125 moveto
/zero glyphshow

/DejaVuSans findfont
14.0 scalefont
setfont
25.640625 8.609375 moveto
/two glyphshow


grestore
/DejaVuSans findfont
40.000 scalefont
setfont
gsave
37.590625 37.680000 translate
90.000000 rotate
0.000000 0.000000 m /S glyphshow
25.390625 0.000000 m /u glyphshow
50.742188 0.000000 m /r glyphshow
67.187500 0.000000 m /f glyphshow
81.269531 0.000000 m /a glyphshow
105.781250 0.000000 m /c glyphshow
127.773438 0.000000 m /e glyphshow
152.382812 0.000000 m /space glyphshow
165.097656 0.000000 m /d glyphshow
190.488281 0.000000 m /e glyphshow
215.097656 0.000000 m /n glyphshow
240.449219 0.000000 m /s glyphshow
261.289062 0.000000 m /i glyphshow
272.402344 0.000000 m /t glyphshow
288.085938 0.000000 m /y glyphshow
311.757812 0.000000 m /space glyphshow
324.472656 0.000000 m /parenleft glyphshow
340.078125 0.000000 m /n glyphshow
365.429688 0.000000 m /o glyphshow
389.902344 0.000000 m /r glyphshow
406.347656 0.000000 m /m glyphshow
445.312500 0.000000 m /a glyphshow
469.824219 0.000000 m /l glyphshow
480.937500 0.000000 m /i glyphshow
492.050781 0.000000 m /z glyphshow
513.046875 0.000000 m /e glyphshow
537.656250 0.000000 m /d glyphshow
563.046875 0.000000 m /parenright glyphshow
grestore
4.000 setlinewidth
2 setlinecap
1.000 0.000 0.000 setrgbcolor
gsave
892.8 499 103.9 77.56 clipbox
144.500568 100.239375 m
274.520948 100.239375 l
274.71915 553.839375 l
274.917351 100.239375 l
956.136932 100.239375 l
956.136932 100.239375 l
stroke
grestore
0 setlinecap
[14.8 6.4] 0 setdash
0.000 0.500 0.000 setrgbcolor
gsave
892.8 499 103.9 77.56 clipbox
144.500568 100.239375 m
221.402866 100.338555 l
222.790278 100.573583 l
223.583086 100.895845 l
224.177691 101.316236 l
224.772296 101.984309 l
225.366902 103.02317 l
225.961507 104.5925 l
226.556113 106.875387 l
227.150718 110.04431 l
227.943525 115.827321 l
228.736332 123.351676 l
229.925543 137.148889 l
232.105763 166.012497 l
236.268001 221.018346 l
239.241028 257.253573 l
242.015853 288.466737 l
244.790678 317.136186 l
247.367301 341.473838 l
249.745723 361.984471 l
252.124145 380.616488 l
254.304364 396.044178 l
256.484584 409.890932 l
258.466602 421.106228 l
260.44862 431.013603 l
262.232436 438.81153 l
263.818051 444.853004 l
265.403665 450.056601 l
266.791078 453.922286 l
268.17849 457.146233 l
269.367701 459.398775 l
270.556912 461.179723 l
271.547921 462.303572 l
272.53893 463.099876 l
273.331737 463.501078 l
274.124544 463.692635 l
274.917351 463.674543 l
275.710159 463.446798 l
276.502966 463.009398 l
277.493975 462.16782 l
278.484984 460.998656 l
279.475993 459.501912 l
280.665204 457.273427 l
281.854414 454.57326 l
283.241827 450.826953 l
284.62924 446.438737 l
286.214854 440.637717 l
287.800468 433.998517 l
289.584284 425.527734 l
291.368101 415.996609 l
293.350119 404.16325 l
295.332137 391.021735 l
297.512356 375.055861 l
299.890778 355.835194 l
302.2692 334.734146 l
304.845823 309.754732 l
307.422446 282.573646 l
310.197271 250.847368 l
312.972097 216.610008 l
316.341527 172.03164 l
319.512756 130.476203 l
320.701967 117.953223 l
321.494774 111.614936 l
322.287581 107.072466 l
322.882187 104.729383 l
323.476792 103.114246 l
324.071397 102.042902 l
324.666003 101.352983 l
325.45881 100.813889 l
326.449819 100.484736 l
327.837232 100.311396 l
330.810258 100.244019 l
359.549519 100.239375 l
956.136932 100.239375 l
956.136932 100.239375 l
stroke
grestore
[25.6 6.4 4 6.4] 0 setdash
0.000 0.000 1.000 setrgbcolor
gsave
892.8 499 103.9 77.56 clipbox
144.500568 100.239375 m
199.79887 100.347923 l
201.582686 100.563843 l
202.771897 100.899668 l
203.762906 101.415259 l
204.555713 102.082108 l
205.34852 103.086784 l
206.141327 104.561708 l
206.934135 106.656432 l
207.726942 109.513076 l
208.519749 113.230819 l
209.510758 119.117486 l
210.699969 127.797412 l
212.285583 141.301565 l
215.25861 169.066937 l
220.015453 213.139061 l
223.583086 244.104248 l
226.952516 271.458613 l
230.123745 295.497379 l
233.294974 317.874342 l
236.268001 337.34098 l
239.241028 355.343151 l
242.015853 370.822916 l
244.790678 385.025229 l
247.367301 397.068661 l
249.745723 407.207104 l
252.124145 416.405771 l
254.304364 424.012056 l
256.484584 430.8282 l
258.466602 436.338874 l
260.44862 441.196249 l
262.232436 445.009215 l
264.016252 448.292832 l
265.601867 450.767151 l
267.187481 452.823112 l
268.574894 454.27886 l
269.962306 455.414242 l
271.151517 456.132424 l
272.340728 456.615202 l
273.529939 456.862564 l
274.71915 456.874497 l
275.90836 456.650989 l
277.097571 456.192031 l
278.286782 455.497612 l
279.475993 454.567726 l
280.863405 453.185242 l
282.250818 451.482241 l
283.836432 449.143472 l
285.422047 446.386049 l
287.205863 442.783518 l
288.989679 438.651118 l
290.971697 433.438118 l
292.953715 427.570979 l
295.133935 420.361625 l
297.314155 412.36084 l
299.692576 402.730163 l
302.070998 392.157804 l
304.647621 379.64191 l
307.224245 366.021222 l
309.99907 350.117558 l
312.773895 332.933322 l
315.746922 313.101227 l
318.719949 291.800751 l
321.891178 267.464116 l
325.260608 239.786858 l
328.630039 210.271767 l
332.594075 173.482559 l
336.954514 133.175791 l
338.341927 122.248515 l
339.531138 114.609695 l
340.522147 109.735813 l
341.314954 106.817776 l
342.107761 104.673294 l
342.900568 103.160985 l
343.693375 102.129903 l
344.486183 101.445276 l
345.477192 100.915987 l
346.666402 100.571446 l
348.252017 100.36478 l
351.026842 100.260926 l
361.135134 100.239396 l
956.136932 100.239375 l
956.136932 100.239375 l
stroke
grestore
[4 6.6] 0 setdash
0.000 setgray
gsave
892.8 499 103.9 77.56 clipbox
144.500568 180.273999 m
147.869999 193.78067 l
152.825044 212.660419 l
158.374694 232.957189 l
163.924344 252.41417 l
169.275793 270.352851 l
174.42904 286.837862 l
179.384085 301.941457 l
184.140928 315.73991 l
188.699569 328.310879 l
193.258211 340.236812 l
197.61865 351.035803 l
201.97909 361.235926 l
206.141327 370.410666 l
210.105363 378.636038 l
214.069399 386.359469 l
217.835234 393.230243 l
221.601068 399.645153 l
225.1687 405.300859 l
228.736332 410.545452 l
232.105763 415.120443 l
235.475194 419.327353 l
238.646422 422.95003 l
241.817651 426.245681 l
244.98888 429.213886 l
247.961907 431.698842 l
250.934934 433.895358 l
253.907961 435.803154 l
256.682786 437.323039 l
259.457611 438.590982 l
262.232436 439.606793 l
264.80906 440.324127 l
267.385683 440.823768 l
269.962306 441.105584 l
272.53893 441.169453 l
275.115553 441.015255 l
277.692177 440.642878 l
280.2688 440.052213 l
282.845423 439.243158 l
285.620249 438.127521 l
288.395074 436.758372 l
291.169899 435.135599 l
293.944724 433.259096 l
296.917751 430.96688 l
299.890778 428.383156 l
302.863805 425.507812 l
306.035034 422.119228 l
309.206262 418.398598 l
312.377491 414.345805 l
315.746922 409.675637 l
319.116352 404.630237 l
322.683985 398.878928 l
326.251617 392.706679 l
330.017451 385.734724 l
333.783285 378.293488 l
337.747321 369.953495 l
341.711357 361.093258 l
345.873595 351.229971 l
350.035833 340.792872 l
354.396272 329.243222 l
358.756712 317.063645 l
363.315353 303.656915 l
367.873995 289.561804 l
372.630838 274.120373 l
377.387681 257.931055 l
382.342726 240.275372 l
387.495973 221.066973 l
392.847421 200.241249 l
398.991677 175.383449 l
408.10896 138.358274 l
410.685583 128.835294 l
412.667601 122.236609 l
414.451417 117.026597 l
416.037032 113.073762 l
417.424444 110.171472 l
418.811857 107.78207 l
420.199269 105.870253 l
421.586682 104.380138 l
422.974095 103.245218 l
424.361507 102.397657 l
425.947122 101.701104 l
427.730938 101.171363 l
429.911158 100.769791 l
432.685983 100.493731 l
436.848221 100.321316 l
445.172696 100.247117 l
499.479989 100.239375 l
956.136932 100.239375 l
956.136932 100.239375 l
stroke
grestore
2 setlinecap
[] 0 setdash
0.000 0.500 0.000 setrgbcolor
gsave
892.8 499 103.9 77.56 clipbox
274.119263 77.559375 m
274.119263 576.519375 l
stroke
grestore
0 setlinecap
[14.8 6.4] 0 setdash
0.000 0.000 1.000 setrgbcolor
gsave
892.8 499 103.9 77.56 clipbox
538.369947 77.559375 m
538.369947 576.519375 l
stroke
grestore
[25.6 6.4 4 6.4] 0 setdash
1.000 0.000 0.000 setrgbcolor
gsave
892.8 499 103.9 77.56 clipbox
498.675638 77.559375 m
498.675638 576.519375 l
stroke
grestore
2.000 setlinewidth
0 setlinejoin
2 setlinecap
[] 0 setdash
0.000 setgray
gsave
103.91875 77.559375 m
103.91875 576.519375 l
stroke
grestore
gsave
996.71875 77.559375 m
996.71875 576.519375 l
stroke
grestore
gsave
103.91875 77.559375 m
996.71875 77.559375 l
stroke
grestore
gsave
103.91875 576.519375 m
996.71875 576.519375 l
stroke
grestore
1.000 setlinewidth
0 setlinecap
gsave
645.8125 355.00375 m
986.71875 355.00375 l
986.71875 566.519375 l
645.8125 566.519375 l
cl
gsave
1.000 setgray
fill
grestore
stroke
grestore
4.000 setlinewidth
1 setlinejoin
2 setlinecap
[] 0 setdash
1.000 0.000 0.000 setrgbcolor
gsave
659.8125 550.31625 m
687.8125 550.31625 l
stroke
grestore
0.000 setgray
gsave
709.812500 543.316250 translate
0.000000 rotate
/DejaVuSans-Oblique findfont
20.0 scalefont
setfont
0.000000 0.156250 moveto
/tau glyphshow

/DejaVuSans findfont
20.0 scalefont
setfont
12.041016 0.156250 moveto
/equal glyphshow

28.798828 0.156250 moveto
/one glyphshow

41.523438 0.156250 moveto
/period glyphshow

47.880859 0.156250 moveto
/zero glyphshow

60.605469 0.156250 moveto
/e glyphshow

72.910156 0.156250 moveto
/hyphen glyphshow

80.126953 0.156250 moveto
/three glyphshow

92.851562 0.156250 moveto
/zero glyphshow


grestore
0 setlinecap
[14.8 6.4] 0 setdash
0.000 0.500 0.000 setrgbcolor
gsave
659.8125 520.956875 m
687.8125 520.956875 l
stroke
grestore
0.000 setgray
gsave
709.812500 513.956875 translate
0.000000 rotate
/DejaVuSans-Oblique findfont
20.0 scalefont
setfont
0.000000 0.156250 moveto
/tau glyphshow

/DejaVuSans findfont
20.0 scalefont
setfont
12.041016 0.156250 moveto
/equal glyphshow

28.798828 0.156250 moveto
/four glyphshow

41.523438 0.156250 moveto
/period glyphshow

47.880859 0.156250 moveto
/three glyphshow

60.605469 0.156250 moveto
/e glyphshow

72.910156 0.156250 moveto
/hyphen glyphshow

80.126953 0.156250 moveto
/zero glyphshow

92.851562 0.156250 moveto
/three glyphshow


grestore
[25.6 6.4 4 6.4] 0 setdash
0.000 0.000 1.000 setrgbcolor
gsave
659.8125 491.5975 m
687.8125 491.5975 l
stroke
grestore
0.000 setgray
gsave
709.812500 484.597500 translate
0.000000 rotate
/DejaVuSans-Oblique findfont
20.0 scalefont
setfont
0.000000 0.156250 moveto
/tau glyphshow

/DejaVuSans findfont
20.0 scalefont
setfont
12.041016 0.156250 moveto
/equal glyphshow

28.798828 0.156250 moveto
/eight glyphshow

41.523438 0.156250 moveto
/period glyphshow

47.880859 0.156250 moveto
/five glyphshow

60.605469 0.156250 moveto
/e glyphshow

72.910156 0.156250 moveto
/hyphen glyphshow

80.126953 0.156250 moveto
/zero glyphshow

92.851562 0.156250 moveto
/three glyphshow


grestore
[4 6.6] 0 setdash
gsave
659.8125 462.238125 m
687.8125 462.238125 l
stroke
grestore
gsave
709.812500 455.238125 translate
0.000000 rotate
/DejaVuSans-Oblique findfont
20.0 scalefont
setfont
0.000000 0.156250 moveto
/tau glyphshow

/DejaVuSans findfont
20.0 scalefont
setfont
12.041016 0.156250 moveto
/equal glyphshow

28.798828 0.156250 moveto
/four glyphshow

41.523438 0.156250 moveto
/period glyphshow

47.880859 0.156250 moveto
/three glyphshow

60.605469 0.156250 moveto
/e glyphshow

72.910156 0.156250 moveto
/hyphen glyphshow

80.126953 0.156250 moveto
/zero glyphshow

92.851562 0.156250 moveto
/two glyphshow


grestore
2 setlinecap
[] 0 setdash
0.000 0.500 0.000 setrgbcolor
gsave
659.8125 432.87875 m
687.8125 432.87875 l
stroke
grestore
0.000 setgray
/DejaVuSans findfont
20.000 scalefont
setfont
gsave
709.812500 425.878750 translate
0.000000 rotate
0.000000 0.000000 m /C glyphshow
13.964844 0.000000 m /i glyphshow
19.521484 0.000000 m /r glyphshow
27.744141 0.000000 m /c glyphshow
38.740234 0.000000 m /u glyphshow
51.416016 0.000000 m /l glyphshow
56.972656 0.000000 m /a glyphshow
69.228516 0.000000 m /r glyphshow
77.451172 0.000000 m /i glyphshow
83.007812 0.000000 m /s glyphshow
93.427734 0.000000 m /a glyphshow
105.683594 0.000000 m /t glyphshow
113.525391 0.000000 m /i glyphshow
119.082031 0.000000 m /o glyphshow
131.318359 0.000000 m /n glyphshow
143.994141 0.000000 m /space glyphshow
150.351562 0.000000 m /r glyphshow
158.574219 0.000000 m /a glyphshow
170.830078 0.000000 m /d glyphshow
183.525391 0.000000 m /i glyphshow
189.082031 0.000000 m /u glyphshow
201.757812 0.000000 m /s glyphshow
grestore
0 setlinecap
[14.8 6.4] 0 setdash
0.000 0.000 1.000 setrgbcolor
gsave
659.8125 403.519375 m
687.8125 403.519375 l
stroke
grestore
0.000 setgray
gsave
709.812500 396.519375 translate
0.000000 rotate
0.000000 0.000000 m /R glyphshow
13.896484 0.000000 m /o glyphshow
26.132812 0.000000 m /c glyphshow
37.128906 0.000000 m /h glyphshow
49.804688 0.000000 m /e glyphshow
62.109375 0.000000 m /space glyphshow
68.466797 0.000000 m /l glyphshow
74.023438 0.000000 m /o glyphshow
86.259766 0.000000 m /b glyphshow
98.955078 0.000000 m /e glyphshow
111.259766 0.000000 m /space glyphshow
117.617188 0.000000 m /r glyphshow
125.839844 0.000000 m /a glyphshow
138.095703 0.000000 m /d glyphshow
150.791016 0.000000 m /i glyphshow
156.347656 0.000000 m /u glyphshow
169.023438 0.000000 m /s glyphshow
179.443359 0.000000 m /space glyphshow
185.800781 0.000000 m /a glyphshow
198.056641 0.000000 m /c glyphshow
209.052734 0.000000 m /c glyphshow
220.048828 0.000000 m /r glyphshow
228.271484 0.000000 m /e glyphshow
240.576172 0.000000 m /t glyphshow
248.417969 0.000000 m /o glyphshow
260.654297 0.000000 m /r glyphshow
grestore
[25.6 6.4 4 6.4] 0 setdash
1.000 0.000 0.000 setrgbcolor
gsave
659.8125 374.16 m
687.8125 374.16 l
stroke
grestore
0.000 setgray
gsave
709.812500 367.160000 translate
0.000000 rotate
0.000000 0.000000 m /O glyphshow
15.742188 0.000000 m /u glyphshow
28.417969 0.000000 m /t glyphshow
36.259766 0.000000 m /e glyphshow
48.564453 0.000000 m /r glyphshow
56.787109 0.000000 m /space glyphshow
63.144531 0.000000 m /r glyphshow
71.367188 0.000000 m /a glyphshow
83.623047 0.000000 m /d glyphshow
96.318359 0.000000 m /i glyphshow
101.875000 0.000000 m /u glyphshow
114.550781 0.000000 m /s glyphshow
124.970703 0.000000 m /space glyphshow
131.328125 0.000000 m /d glyphshow
144.023438 0.000000 m /i glyphshow
149.580078 0.000000 m /s glyphshow
160.000000 0.000000 m /k glyphshow
grestore

end
showpage
