\relax 
\@writefile{toc}{\contentsline {section}{\numberline {1}Questions: General}{2}}
\@writefile{toc}{\contentsline {subsection}{\numberline {1.1}What is your research question?}{2}}
\@writefile{toc}{\contentsline {subsection}{\numberline {1.2}What led you to choose this topic?}{2}}
\@writefile{toc}{\contentsline {subsection}{\numberline {1.3}What will be your novel contribution to your field?}{2}}
\@writefile{toc}{\contentsline {subsection}{\numberline {1.4}What areas did you cover in your literature review, and why?}{2}}
\@writefile{toc}{\contentsline {subsection}{\numberline {1.5}Why have you chosen this particular method/approach?}{2}}
\@writefile{toc}{\contentsline {subsection}{\numberline {1.6}What are the strengths and weaknesses of this approach?}{2}}
\@writefile{toc}{\contentsline {subsection}{\numberline {1.7}Have you encountered any problems?}{2}}
\@writefile{toc}{\contentsline {subsection}{\numberline {1.8}How have you overcome these problems?}{2}}
\@writefile{toc}{\contentsline {subsection}{\numberline {1.9}How do you plan to complete the research?}{2}}
\@writefile{toc}{\contentsline {subsection}{\numberline {1.10}What will you do if this method/process proves to have little to no big influence/impact?}{2}}
\@writefile{toc}{\contentsline {section}{\numberline {2}Questions: Physisc}{2}}
\@writefile{toc}{\contentsline {subsection}{\numberline {2.1}Why wouldnt a decretion disk occur when the star has been tidally spun up? What does it take for a star to feed a decretion disk with angmom}{2}}
\@writefile{toc}{\contentsline {subsection}{\numberline {2.2}Will the enhanced wind mass loss not swamp the mass loss?}{2}}
