\relax 
\providecommand\hyper@newdestlabel[2]{}
\providecommand\HyperFirstAtBeginDocument{\AtBeginDocument}
\HyperFirstAtBeginDocument{\ifx\hyper@anchor\@undefined
\global\let\oldcontentsline\contentsline
\gdef\contentsline#1#2#3#4{\oldcontentsline{#1}{#2}{#3}}
\global\let\oldnewlabel\newlabel
\gdef\newlabel#1#2{\newlabelxx{#1}#2}
\gdef\newlabelxx#1#2#3#4#5#6{\oldnewlabel{#1}{{#2}{#3}}}
\AtEndDocument{\ifx\hyper@anchor\@undefined
\let\contentsline\oldcontentsline
\let\newlabel\oldnewlabel
\fi}
\fi}
\global\let\hyper@last\relax 
\gdef\HyperFirstAtBeginDocument#1{#1}
\providecommand\HyField@AuxAddToFields[1]{}
\providecommand\HyField@AuxAddToCoFields[2]{}
\select@language{english}
\@writefile{toc}{\select@language{english}}
\@writefile{lof}{\select@language{english}}
\@writefile{lot}{\select@language{english}}
\@writefile{toc}{\contentsline {section}{\numberline {1}Project brief}{2}{section.1}}
\newlabel{sec:project-brief}{{1}{2}{Project brief}{section.1}{}}
\@writefile{exp}{\contentsline {todo}{ \numberline {1}dan: look up fraction }{2}{todo.1}}
\@writefile{exp}{\contentsline {todo}{ \numberline {2}denis: put in citation }{2}{todo.2}}
\@writefile{exp}{\contentsline {todo}{ \numberline {3}denis: put in citation }{2}{todo.3}}
\@writefile{exp}{\contentsline {todo}{ \numberline {4}denis: put in citation }{2}{todo.4}}
\@writefile{exp}{\contentsline {todo}{ \numberline {5}denis: put in citation }{2}{todo.5}}
\@writefile{exp}{\contentsline {todo}{ \numberline {6}denis: put in citation }{2}{todo.6}}
\@writefile{exp}{\contentsline {todo}{ \numberline {7}denis: put in citation }{2}{todo.7}}
\@writefile{exp}{\contentsline {todo}{ \numberline {8}denis: put in citation }{2}{todo.8}}
\@writefile{exp}{\contentsline {todo}{ \numberline {9}denis: put in citation }{2}{todo.9}}
\@writefile{exp}{\contentsline {todo}{ \numberline {10}denis: put in citation }{3}{todo.10}}
\@writefile{lof}{\contentsline {figure}{\numberline {1}{\ignorespaces Schematic overview of a binary system undergoing Roche Lobe overflow. Credits to https://www.astrofranzi.com/msc-project/\relax }}{3}{figure.caption.2}}
\providecommand*\caption@xref[2]{\@setref\relax\@undefined{#1}}
\newlabel{fig:rochelobe_overflow_schematic}{{1}{3}{Schematic overview of a binary system undergoing Roche Lobe overflow. Credits to https://www.astrofranzi.com/msc-project/\relax }{figure.caption.2}{}}
\citation{de_marco_impact_2017}
\citation{lubow_gas_1975,flannery_gas_1975}
\@writefile{toc}{\contentsline {section}{\numberline {2}Literature review}{4}{section.2}}
\newlabel{sec:literature-review}{{2}{4}{Literature review}{section.2}{}}
\@writefile{toc}{\contentsline {subsection}{\numberline {2.1}Binary evolution}{4}{subsection.2.1}}
\newlabel{sec:binary_evolution}{{2.1}{4}{Binary evolution}{subsection.2.1}{}}
\@writefile{expd}{\contentsline {done}{ \numberline {1}literature: add explanation about mass transfer }{4}{done.1}}
\@writefile{exp}{\contentsline {todo}{ \numberline {11}denis: be more clear about what the Roche radius is. }{4}{todo.11}}
\newlabel{eq:angmom}{{1}{4}{Binary evolution}{equation.2.1}{}}
\newlabel{eq:period_mass_transfer}{{2}{4}{Binary evolution}{equation.2.2}{}}
\@writefile{exp}{\contentsline {todo}{ \numberline {12}denis: put in citation }{5}{todo.12}}
\@writefile{exp}{\contentsline {todo}{ \numberline {13}denis: put in citation }{5}{todo.13}}
\newlabel{eq:mdot}{{3}{5}{Binary evolution}{equation.2.3}{}}
\newlabel{eq:jdot}{{4}{5}{Binary evolution}{equation.2.4}{}}
\@writefile{exp}{\contentsline {todo}{ \numberline {14}Put citation }{5}{todo.14}}
\citation{de_mink_critically_2007}
\citation{lubow_gas_1975}
\citation{packet_spin-up_1981}
\citation{langer_coupled_1998}
\citation{lynden-bell_evolution_1974}
\citation{shakura_black_1973}
\citation{armitage_hydrodynamics_1998}
\citation{lubow_model_1991}
\citation{osaki_early_2002}
\citation{papaloizou_tidal_1977,ichikawa_tidal_1994}
\@writefile{exp}{\contentsline {todo}{ \numberline {15}Add l2 on Figure 1 }{6}{todo.15}}
\@writefile{exp}{\contentsline {todo}{ \numberline {16}Put citation }{6}{todo.16}}
\@writefile{exp}{\contentsline {todo}{ \numberline {17}Put citation }{6}{todo.17}}
\@writefile{exp}{\contentsline {todo}{ \numberline {18}literature: Add part of different ways of losing angular momentum }{6}{todo.18}}
\@writefile{exp}{\contentsline {todo}{ \numberline {19}explain rmin and add citation }{6}{todo.19}}
\@writefile{exp}{\contentsline {todo}{ \numberline {20}add citation }{6}{todo.20}}
\@writefile{toc}{\contentsline {subsection}{\numberline {2.2}Disks and disk mass loss}{6}{subsection.2.2}}
\newlabel{sec:disk}{{2.2}{6}{Disks and disk mass loss}{subsection.2.2}{}}
\citation{neustroev_voracious_2019}
\citation{bisikalo_circumstellar_2000}
\citation{kley_simulations_2008}
\citation{pustylnik_early_1998}
\citation{budding_catalogue_2004}
\citation{yoon_quantitative_1994}
\citation{richards_evidence_1993}
\citation{dervisoglu_evidence_2018}
\@writefile{exp}{\contentsline {todo}{ \numberline {21}literature: Mention accretion disk winds }{7}{todo.21}}
\@writefile{exp}{\contentsline {todo}{ \numberline {22}literature: give information about properties of disc more }{7}{todo.22}}
\@writefile{exp}{\contentsline {todo}{ \numberline {23}literature: Purpose of this study and importance of consistency. }{7}{todo.23}}
\@writefile{toc}{\contentsline {subsection}{\numberline {2.3}Observational evidence and modelling efforts}{7}{subsection.2.3}}
\citation{richards_morphologies_1999}
\citation{richards_morphologies_1999}
\citation{marsh_images_1988}
\citation{van_rensbergen_accretion_2016}
\citation{mardirossian_mass_1982}
\citation{de_mink_efficiency_2007}
\citation{harries_ten_2003,hilditch_forty_2004}
\citation{dervisoglu_spin_2010,tout_non-conservative_2012,erdem_non-conservative_2014}
\citation{lomax_spectropolarimetry_2011}
\citation{rensbergen_spin-up_2008,rensbergen_rapid_2009,van_rensbergen_mass_2011,deschamps_critically-rotating_2013,deschamps_non-conservative_2015}
\citation{izzard_new_2004,izzard_population_2006,izzard_population_2009,izzard_population_2018}
\citation{hurley_evolution_2002}
\citation{kroupa_variation_2001}
\citation{sana_binary_2012}
\citation{duquennoy_multiplicity_1991}
\@writefile{toc}{\contentsline {section}{\numberline {3}Progress so far}{10}{section.3}}
\newlabel{sec:progress}{{3}{10}{Progress so far}{section.3}{}}
\@writefile{toc}{\contentsline {subsection}{\numberline {3.1}Literature study}{10}{subsection.3.1}}
\@writefile{toc}{\contentsline {subsection}{\numberline {3.2}Populations of mass transfering binary systems}{10}{subsection.3.2}}
\citation{krumholz_vader_2014}
\citation{osaki_early_2002}
\@writefile{lof}{\contentsline {figure}{\numberline {2}{\ignorespaces The fraction of systems that will transfer mass via direct impact accretion (yellow) versus accretion disk mass transfer (green). The fractions have been calculated as explained above, for Z=0.02 (solar), Z=0.01 ($\approx $ LMC) and Z=0.002 ($\approx $ SMC-like) metallicities.\relax }}{11}{figure.caption.3}}
\newlabel{fig:ratio_mt_disc}{{2}{11}{The fraction of systems that will transfer mass via direct impact accretion (yellow) versus accretion disk mass transfer (green). The fractions have been calculated as explained above, for Z=0.02 (solar), Z=0.01 ($\approx $ LMC) and Z=0.002 ($\approx $ SMC-like) metallicities.\relax }{figure.caption.3}{}}
\@writefile{toc}{\contentsline {subsection}{\numberline {3.3}Disk modelling}{11}{subsection.3.3}}
\@writefile{expd}{\contentsline {done}{ \numberline {2}progress: words about disk modelling }{11}{done.2}}
\@writefile{exp}{\contentsline {todo}{ \numberline {24}dan: Go into this }{11}{todo.24}}
\citation{hubova_kinematics_2019}
\@writefile{lof}{\contentsline {figure}{\numberline {3}{\ignorespaces Surface density evolution of a spreading ring in of $10^{-6}$ $M_{\odot }$\ in a binary with $M_{\text  {accretor}}$ = 5$M_{\odot }$, $M_{\text  {donor}}$ = 5.9 $M_{\odot }$\ and the separation is 75 $R_{\odot }$. The indicated radii are the circularisation radius (green solid), the outer disk radius (red dash-dotted) and the Roche lobe radius (blue dashed). This model serves as a test case for the code. \relax }}{12}{figure.caption.4}}
\newlabel{fig:spreading_ring}{{3}{12}{Surface density evolution of a spreading ring in of $10^{-6}$ \mdot \ in a binary with $M_{\text {accretor}}$ = 5\mdot , $M_{\text {donor}}$ = 5.9 \mdot \ and the separation is 75 \rdot . The indicated radii are the circularisation radius (green solid), the outer disk radius (red dash-dotted) and the Roche lobe radius (blue dashed). This model serves as a test case for the code. \relax }{figure.caption.4}{}}
\@writefile{exp}{\contentsline {todo}{ \numberline {25}choose other line style for the red ones }{12}{todo.25}}
\@writefile{toc}{\contentsline {subsection}{\numberline {3.4}Particle trajectories}{12}{subsection.3.4}}
\@writefile{exp}{\contentsline {todo}{ \numberline {26}check kopal }{12}{todo.26}}
\citation{ud-doula_angular_2008}
\citation{tout_non-conservative_2012}
\@writefile{toc}{\contentsline {subsection}{\numberline {3.5}Stellar spin up}{13}{subsection.3.5}}
\@writefile{lof}{\contentsline {figure}{\numberline {4}{\ignorespaces Fraction of initial mass lost through wind mass loss during the main-sequence of stars in a range of masses. The different lines represent different metallicities; Z=0.02 (blue dashed) or solar metallicity loses most mass during the main sequence and from 10$M_{\odot }$\ it loses more than a percent of its initial mass. The Z=0.01 (orange dashdot) loses more than a percent of its initial mass from 12$M_{\odot }$, and the low metallicity stars of Z=0.001 (green solid) do this from 20$M_{\odot }$\ and above\relax }}{13}{figure.caption.5}}
\newlabel{fig:single_mass_wind}{{4}{13}{Fraction of initial mass lost through wind mass loss during the main-sequence of stars in a range of masses. The different lines represent different metallicities; Z=0.02 (blue dashed) or solar metallicity loses most mass during the main sequence and from 10\mdot \ it loses more than a percent of its initial mass. The Z=0.01 (orange dashdot) loses more than a percent of its initial mass from 12\mdot , and the low metallicity stars of Z=0.001 (green solid) do this from 20\mdot \ and above\relax }{figure.caption.5}{}}
\@writefile{expd}{\contentsline {done}{ \numberline {3}Fill caption wind mass loss }{13}{done.3}}
\@writefile{toc}{\contentsline {section}{\numberline {4}Published work}{15}{section.4}}
\newlabel{sec:published-work}{{4}{15}{Published work}{section.4}{}}
\@writefile{expd}{\contentsline {done}{ \numberline {4}published-work: more words on possible publications }{15}{done.4}}
\citation{paxton_modules_2011,paxton_modules_2013,paxton_modules_2015,paxton_modules_2018,paxton_modules_2019}
\citation{erdem_non-conservative_2014,deschamps_non-conservative_2015}
\citation{deschamps_critically-rotating_2013,tout_non-conservative_2012,deschamps_critically-rotating_2013,van_rensbergen_mass_2011,rensbergen_rapid_2009,rensbergen_spin-up_2008}
\citation{matson_radial_2017}
\@writefile{toc}{\contentsline {section}{\numberline {5}Future plans}{16}{section.5}}
\newlabel{sec:future-plans}{{5}{16}{Future plans}{section.5}{}}
\@writefile{exp}{\contentsline {todo}{ \numberline {27}future: risks and how to deal with it }{16}{todo.27}}
\@writefile{toc}{\contentsline {subsection}{\numberline {5.1}1-d disk evolution}{16}{subsection.5.1}}
\@writefile{toc}{\contentsline {subsection}{\numberline {5.2}Detailed evolution simulations and Comparison with observations}{16}{subsection.5.2}}
\newlabel{sec:future_detail}{{5.2}{16}{Detailed evolution simulations and Comparison with observations}{subsection.5.2}{}}
\citation{erdem_non-conservative_2014}
\citation{deschamps_non-conservative_2015}
\citation{paxton_modules_2011}
\citation{song_close_2018}
\@writefile{toc}{\contentsline {subsection}{\numberline {5.3}Population}{17}{subsection.5.3}}
\newlabel{sec:future_pop}{{5.3}{17}{Population}{subsection.5.3}{}}
\@writefile{exp}{\contentsline {todo}{ \numberline {28}Write about population study in the future }{17}{todo.28}}
\@writefile{toc}{\contentsline {section}{\numberline {6}Professional development}{18}{section.6}}
\newlabel{sec:professional-development}{{6}{18}{Professional development}{section.6}{}}
\@writefile{toc}{\contentsline {subsection}{\numberline {6.1}Supervised summer student}{18}{subsection.6.1}}
\newlabel{sec:summerstudent}{{6.1}{18}{Supervised summer student}{subsection.6.1}{}}
\@writefile{expd}{\contentsline {done}{ \numberline {5}Write about supervision of summer student }{18}{done.5}}
\@writefile{toc}{\contentsline {subsection}{\numberline {6.2}Aided supervision of two bachelor students}{19}{subsection.6.2}}
\newlabel{sec:bachelorstudents}{{6.2}{19}{Aided supervision of two bachelor students}{subsection.6.2}{}}
\@writefile{toc}{\contentsline {subsection}{\numberline {6.3}Refereeing a paper for MNRAS}{19}{subsection.6.3}}
\newlabel{sec:refereeing}{{6.3}{19}{Refereeing a paper for MNRAS}{subsection.6.3}{}}
\@writefile{toc}{\contentsline {subsection}{\numberline {6.4}Outreach activities}{19}{subsection.6.4}}
\newlabel{sec:outreach}{{6.4}{19}{Outreach activities}{subsection.6.4}{}}
\@writefile{toc}{\contentsline {subsection}{\numberline {6.5}Winter School in November 2019}{19}{subsection.6.5}}
\newlabel{sec:winterschool}{{6.5}{19}{Winter School in November 2019}{subsection.6.5}{}}
\@writefile{toc}{\contentsline {subsection}{\numberline {6.6}Workshops and conferences}{20}{subsection.6.6}}
\@writefile{toc}{\contentsline {subsection}{\numberline {6.7}Demonstrating}{20}{subsection.6.7}}
\@writefile{toc}{\contentsline {section}{\numberline {7}todos}{21}{section.7}}
\@writefile{expd}{\contentsline {done}{ \numberline {6}input data management plan }{21}{done.6}}
\@writefile{expd}{\contentsline {done}{ \numberline {7}Add gantchart as appendix }{21}{done.7}}
\@writefile{expd}{\contentsline {done}{ \numberline {8}Do formatting of appendices correctly }{21}{done.8}}
\@writefile{expd}{\contentsline {done}{ \numberline {9}Export all text to a text document so that grammarly can check the style and the spelling etc }{21}{done.9}}
\@writefile{expd}{\contentsline {done}{ \numberline {10}Check this document with languagetool aswell. }{21}{done.10}}
\@writefile{expd}{\contentsline {done}{ \numberline {11}Mention the chemical signatures }{21}{done.11}}
\@writefile{exp}{\contentsline {todo}{ \numberline {29}Remove last page of Gantt if it doesnt add anything }{21}{todo.29}}
\@writefile{exp}{\contentsline {todo}{ \numberline {30}Change referencing style }{21}{todo.30}}
\@writefile{expd}{\contentsline {done}{ \numberline {12}Check all spellings of disc and disk }{21}{done.12}}
\@writefile{expd}{\contentsline {done}{ \numberline {13}Mention cataclymics }{21}{done.13}}
\@writefile{exp}{\contentsline {todo}{ \numberline {31}Write about the coming months, and make sure that the stuff of the gantt chart is in line with that. }{21}{todo.31}}
\@writefile{expd}{\contentsline {done}{ \numberline {14}Finish comments Dan }{21}{done.14}}
\@writefile{expd}{\contentsline {done}{ \numberline {15}Finish comments Denis }{21}{done.15}}
\@writefile{exp}{\contentsline {todo}{ \numberline {32}Finish comments Giovanni }{21}{todo.32}}
\@writefile{expd}{\contentsline {done}{ \numberline {16}Non-italic formulae }{21}{done.16}}
\@writefile{exp}{\contentsline {todo}{ \numberline {33}Make sure gantt chart makes sense (it doesnt now!) }{21}{todo.33}}
\bibstyle{ieeetr}
\bibdata{references}
\bibcite{de_marco_impact_2017}{{1}{}{{}}{{}}}
\bibcite{lubow_gas_1975}{{2}{}{{}}{{}}}
\bibcite{flannery_gas_1975}{{3}{}{{}}{{}}}
\bibcite{de_mink_critically_2007}{{4}{}{{}}{{}}}
\bibcite{packet_spin-up_1981}{{5}{}{{}}{{}}}
\bibcite{langer_coupled_1998}{{6}{}{{}}{{}}}
\bibcite{lynden-bell_evolution_1974}{{7}{}{{}}{{}}}
\bibcite{shakura_black_1973}{{8}{}{{}}{{}}}
\bibcite{armitage_hydrodynamics_1998}{{9}{}{{}}{{}}}
\bibcite{lubow_model_1991}{{10}{}{{}}{{}}}
\bibcite{osaki_early_2002}{{11}{}{{}}{{}}}
\bibcite{papaloizou_tidal_1977}{{12}{}{{}}{{}}}
\bibcite{ichikawa_tidal_1994}{{13}{}{{}}{{}}}
\bibcite{neustroev_voracious_2019}{{14}{}{{}}{{}}}
\bibcite{bisikalo_circumstellar_2000}{{15}{}{{}}{{}}}
\bibcite{kley_simulations_2008}{{16}{}{{}}{{}}}
\bibcite{pustylnik_early_1998}{{17}{}{{}}{{}}}
\bibcite{budding_catalogue_2004}{{18}{}{{}}{{}}}
\bibcite{yoon_quantitative_1994}{{19}{}{{}}{{}}}
\bibcite{richards_evidence_1993}{{20}{}{{}}{{}}}
\bibcite{dervisoglu_evidence_2018}{{21}{}{{}}{{}}}
\bibcite{richards_morphologies_1999}{{22}{}{{}}{{}}}
\bibcite{marsh_images_1988}{{23}{}{{}}{{}}}
\bibcite{van_rensbergen_accretion_2016}{{24}{}{{}}{{}}}
\bibcite{mardirossian_mass_1982}{{25}{}{{}}{{}}}
\bibcite{de_mink_efficiency_2007}{{26}{}{{}}{{}}}
\bibcite{harries_ten_2003}{{27}{}{{}}{{}}}
\bibcite{hilditch_forty_2004}{{28}{}{{}}{{}}}
\bibcite{dervisoglu_spin_2010}{{29}{}{{}}{{}}}
\bibcite{tout_non-conservative_2012}{{30}{}{{}}{{}}}
\bibcite{erdem_non-conservative_2014}{{31}{}{{}}{{}}}
\bibcite{lomax_spectropolarimetry_2011}{{32}{}{{}}{{}}}
\bibcite{rensbergen_spin-up_2008}{{33}{}{{}}{{}}}
\bibcite{rensbergen_rapid_2009}{{34}{}{{}}{{}}}
\bibcite{van_rensbergen_mass_2011}{{35}{}{{}}{{}}}
\bibcite{deschamps_critically-rotating_2013}{{36}{}{{}}{{}}}
\bibcite{deschamps_non-conservative_2015}{{37}{}{{}}{{}}}
\bibcite{izzard_new_2004}{{38}{}{{}}{{}}}
\bibcite{izzard_population_2006}{{39}{}{{}}{{}}}
\bibcite{izzard_population_2009}{{40}{}{{}}{{}}}
\bibcite{izzard_population_2018}{{41}{}{{}}{{}}}
\bibcite{hurley_evolution_2002}{{42}{}{{}}{{}}}
\bibcite{kroupa_variation_2001}{{43}{}{{}}{{}}}
\bibcite{sana_binary_2012}{{44}{}{{}}{{}}}
\bibcite{duquennoy_multiplicity_1991}{{45}{}{{}}{{}}}
\bibcite{krumholz_vader_2014}{{46}{}{{}}{{}}}
\bibcite{hubova_kinematics_2019}{{47}{}{{}}{{}}}
\bibcite{ud-doula_angular_2008}{{48}{}{{}}{{}}}
\bibcite{paxton_modules_2011}{{49}{}{{}}{{}}}
\bibcite{paxton_modules_2013}{{50}{}{{}}{{}}}
\bibcite{paxton_modules_2015}{{51}{}{{}}{{}}}
\bibcite{paxton_modules_2018}{{52}{}{{}}{{}}}
\bibcite{paxton_modules_2019}{{53}{}{{}}{{}}}
\bibcite{matson_radial_2017}{{54}{}{{}}{{}}}
\bibcite{song_close_2018}{{55}{}{{}}{{}}}
\@writefile{toc}{\contentsline {section}{Appendix \numberline {A}Data management plan}{26}{Appendix.1.A}}
\newlabel{app:data-management}{{A}{26}{Data management plan}{Appendix.1.A}{}}
\@writefile{toc}{\contentsline {section}{Appendix \numberline {B}Gantt-Chart}{29}{Appendix.1.B}}
\newlabel{app:gantt}{{B}{29}{Gantt-Chart}{Appendix.1.B}{}}
\providecommand\NAT@force@numbers{}\NAT@force@numbers
