\relax 
\@writefile{toc}{\contentsline {chapter}{\numberline {1}Draft table of contents}{1}\protected@file@percent }
\@writefile{lof}{\addvspace {10\p@ }}
\@writefile{lot}{\addvspace {10\p@ }}
\newlabel{chap:draft-table-contents}{{1}{1}}
